{
  "form" : [
    " 1 - 2 - 3 - 9 -12 ",
    "     |   |   |      ",
    "     4   5 -10 -13 ",
    "     |   |   |      ",
    " 8 - 6 - 7 -11 -14 ",
    "             |      ",
    "15 -16 -17 -18 -19"
  ],
  "nodes": [
    [1],
    [2],
    [3],
    [4],
    [5],
    [6],
    [7],
    [8],
    [9],
    [10],
    [11],
    [12],
    [13],
    [14],
    [15],
    [16],
    [17],
    [18],
    [19]
  ],
  "nAgents": 3,
  "agents" : [
    {
      "ID" : 0,
      "initPos" : [1],
      "endPos" : [15],
      "goalPos" : [
        [12],[7]
      ],
      "priority" : 0,
      "name" : "Paperino"
    },
    {
      "ID": 1,
      "initPos" : [8],
      "endPos" : [16],
      "goalPos" : [
        [4],[10]
      ],
      "priority" : 0,
      "name" : "Pluto"
    },
    {
      "ID" : 2,
      "initPos" : [15],
      "endPos" : [17],
      "goalPos" : [
      ],
      "priority" : 0,
      "name" : "Minnie"
    }
  ],
  "connect": [
    [1,1,0,0,0,0,0,0,0,0,0,0,0,0,0,0,0,0,0],
    [1,1,1,1,0,0,0,0,0,0,0,0,0,0,0,0,0,0,0],
    [0,1,1,0,1,0,0,0,1,0,0,0,0,0,0,0,0,0,0],
    [0,1,0,1,0,1,0,0,0,0,0,0,0,0,0,0,0,0,0],
    [0,0,1,0,1,0,1,0,0,1,0,0,0,0,0,0,0,0,0],
    [0,0,0,1,0,1,1,1,0,0,0,0,0,0,0,0,0,0,0],
    [0,0,0,0,1,1,1,0,0,0,1,0,0,0,0,0,0,0,0],
    [0,0,0,0,0,1,0,1,0,0,0,0,0,0,0,0,0,0,0],
    [0,0,1,0,0,0,0,0,1,1,0,1,0,0,0,0,0,0,0],
    [0,0,0,0,1,0,0,0,1,1,1,0,1,0,0,0,0,0,0],
    [0,0,0,0,0,0,1,0,0,1,1,0,0,1,0,0,0,1,0],
    [0,0,0,0,0,0,0,0,1,0,0,1,0,0,0,0,0,0,0],
    [0,0,0,0,0,0,0,0,0,1,0,0,1,0,0,0,0,0,0],
    [0,0,0,0,0,0,0,0,0,0,1,0,0,1,0,0,0,0,0],
    [0,0,0,0,0,0,0,0,0,0,0,0,0,0,1,1,0,0,0],
    [0,0,0,0,0,0,0,0,0,0,0,0,0,0,1,1,1,0,0],
    [0,0,0,0,0,0,0,0,0,0,0,0,0,0,0,1,1,1,0],
    [0,0,0,0,0,0,0,0,0,0,1,0,0,0,0,0,1,1,1],
    [0,0,0,0,0,0,0,0,0,0,0,0,0,0,0,0,0,1,1]
  ],
  "MAPF" :"CP",
  "SAPF" : "TDSP",
  "costFunction" : "SIC",
  "heuristic" : "",
  "solution" : [
    [[ 1],[ 2],[ 3],[ 9],[12],[ 9],[ 3],[ 5],[ 7],[11],[18],[17],[16],[15]],
    [[ 8],[ 6],[ 7],[ 4],[ 6],[ 7],[11],[10],[10],[10],[11],[18],[17],[16]],
    [[15],[16],[17],[18],[19],[19],[19],[19],[19],[19],[19],[19],[18],[17]]
  ]
}