{
  "nNodes": 39,
  "nodes": [
    [      2101,      21,      1,      0    ],
    [      2102,      21,      2,      1    ],
    [      2103,      21,      3,      2    ],
    [      2104,      21,      4,      3    ],
    [      2105,      21,      5,      4    ],
    [      2106,      21,      6,      5    ],
    [      2107,      21,      7,      6    ],
    [      2108,      21,      8,      7    ],
    [      2109,      21,      9,      8    ],
    [      2110,      21,      10,      9    ],
    [      2111,      21,      11,      10    ],
    [      2112,      21,      12,      11    ],
    [      2113,      21,      13,      12    ],
    [      2201,      22,      1,      13    ],
    [      2202,      22,      2,      14    ],
    [      2203,      22,      3,      15    ],
    [      2204,      22,      4,      16    ],
    [      2205,      22,      5,      17    ],
    [      2206,      22,      6,      18    ],
    [      2207,      22,      7,      19    ],
    [      2208,      22,      8,      20    ],
    [      2209,      22,      9,      21    ],
    [      2210,      22,      10,      22    ],
    [      2211,      22,      11,      23    ],
    [      2212,      22,      12,      24    ],
    [      2213,      22,      13,      25    ],
    [      2301,      23,      1,      26    ],
    [      2302,      23,      2,      27    ],
    [      2303,      23,      3,      28    ],
    [      2304,      23,      4,      29    ],
    [      2305,      23,      5,      30    ],
    [      2306,      23,      6,      31    ],
    [      2307,      23,      7,      32    ],
    [      2308,      23,      8,      33    ],
    [      2309,      23,      9,      34    ],
    [      2310,      23,      10,      35    ],
    [      2311,      23,      11,      36    ],
    [      2312,      23,      12,      37    ],
    [      2313,      23,      13,      38    ]
  ],
  "connect": [
    [      1,      1,      0,      0,      0,      0,      0,      0,      0,      0,      0,      0,      0,      0,      0,      0,      0,      0,      0,      0,      0,      0,      0,      0,      0,      0,      0,      0,      0,      0,      0,      0,      0,      0,      0,      0,      0,      0,      0    ],
    [      1,      1,      1,      0,      0,      0,      0,      0,      0,      0,      0,      0,      0,      0,      0,      0,      0,      0,      0,      0,      0,      0,      0,      0,      0,      0,      0,      0,      0,      0,      0,      0,      0,      0,      0,      0,      0,      0,      0    ],
    [      0,      1,      1,      1,      0,      0,      0,      0,      0,      0,      0,      0,      0,      0,      0,      0,      0,      0,      0,      0,      0,      0,      0,      0,      0,      0,      0,      0,      0,      0,      0,      0,      0,      0,      0,      0,      0,      0,      0    ],
    [      0,      0,      1,      1,      1,      0,      0,      0,      0,      0,      0,      0,      0,      0,      0,      0,      0,      0,      0,      0,      0,      0,      0,      0,      0,      0,      0,      0,      0,      0,      0,      0,      0,      0,      0,      0,      0,      0,      0    ],
    [      0,      0,      0,      1,      1,      1,      0,      0,      0,      0,      0,      0,      0,      0,      0,      0,      0,      0,      0,      0,      0,      0,      0,      0,      0,      0,      0,      0,      0,      0,      0,      0,      0,      0,      0,      0,      0,      0,      0    ],
    [      0,      0,      0,      0,      1,      1,      1,      0,      0,      0,      0,      0,      0,      0,      0,      0,      0,      0,      0,      0,      0,      0,      0,      0,      0,      0,      0,      0,      0,      0,      0,      0,      0,      0,      0,      0,      0,      0,      0    ],
    [      0,      0,      0,      0,      0,      1,      1,      1,      0,      0,      0,      0,      0,      0,      0,      0,      0,      0,      0,      0,      0,      0,      0,      0,      0,      0,      0,      0,      0,      0,      0,      0,      0,      0,      0,      0,      0,      0,      0    ],
    [      0,      0,      0,      0,      0,      0,      1,      1,      1,      0,      0,      0,      0,      0,      0,      0,      0,      0,      0,      0,      0,      0,      0,      0,      0,      0,      0,      0,      0,      0,      0,      0,      0,      0,      0,      0,      0,      0,      0    ],
    [      0,      0,      0,      0,      0,      0,      0,      1,      1,      1,      0,      0,      0,      0,      0,      0,      0,      0,      0,      0,      0,      0,      0,      0,      0,      0,      0,      0,      0,      0,      0,      0,      0,      0,      0,      0,      0,      0,      0    ],
    [      0,      0,      0,      0,      0,      0,      0,      0,      1,      1,      1,      0,      0,      0,      0,      0,      0,      0,      0,      0,      0,      0,      0,      0,      0,      0,      0,      0,      0,      0,      0,      0,      0,      0,      0,      0,      0,      0,      0    ],
    [      0,      0,      0,      0,      0,      0,      0,      0,      0,      1,      1,      1,      0,      0,      0,      0,      0,      0,      0,      0,      0,      0,      0,      0,      0,      0,      0,      0,      0,      0,      0,      0,      0,      0,      0,      0,      0,      0,      0    ],
    [      0,      0,      0,      0,      0,      0,      0,      0,      0,      0,      1,      1,      1,      0,      0,      0,      0,      0,      0,      0,      0,      0,      0,      0,      0,      0,      0,      0,      0,      0,      0,      0,      0,      0,      0,      0,      0,      0,      0    ],
    [      0,      0,      0,      0,      0,      0,      0,      0,      0,      0,      0,      1,      1,      0,      0,      0,      0,      0,      0,      0,      0,      0,      0,      0,      0,      1,      0,      0,      0,      0,      0,      0,      0,      0,      0,      0,      0,      0,      0    ],
    [      0,      0,      0,      0,      0,      0,      0,      0,      0,      0,      0,      0,      0,      1,      1,      0,      0,      0,      0,      0,      0,      0,      0,      0,      0,      0,      0,      0,      0,      0,      0,      0,      0,      0,      0,      0,      0,      0,      0    ],
    [      0,      0,      0,      0,      0,      0,      0,      0,      0,      0,      0,      0,      0,      1,      1,      1,      0,      0,      0,      0,      0,      0,      0,      0,      0,      0,      0,      0,      0,      0,      0,      0,      0,      0,      0,      0,      0,      0,      0    ],
    [      0,      0,      0,      0,      0,      0,      0,      0,      0,      0,      0,      0,      0,      0,      1,      1,      1,      0,      0,      0,      0,      0,      0,      0,      0,      0,      0,      0,      0,      0,      0,      0,      0,      0,      0,      0,      0,      0,      0    ],
    [      0,      0,      0,      0,      0,      0,      0,      0,      0,      0,      0,      0,      0,      0,      0,      1,      1,      1,      0,      0,      0,      0,      0,      0,      0,      0,      0,      0,      0,      0,      0,      0,      0,      0,      0,      0,      0,      0,      0    ],
    [      0,      0,      0,      0,      0,      0,      0,      0,      0,      0,      0,      0,      0,      0,      0,      0,      1,      1,      1,      0,      0,      0,      0,      0,      0,      0,      0,      0,      0,      0,      0,      0,      0,      0,      0,      0,      0,      0,      0    ],
    [      0,      0,      0,      0,      0,      0,      0,      0,      0,      0,      0,      0,      0,      0,      0,      0,      0,      1,      1,      1,      0,      0,      0,      0,      0,      0,      0,      0,      0,      0,      0,      0,      0,      0,      0,      0,      0,      0,      0    ],
    [      0,      0,      0,      0,      0,      0,      0,      0,      0,      0,      0,      0,      0,      0,      0,      0,      0,      0,      1,      1,      1,      0,      0,      0,      0,      0,      0,      0,      0,      0,      0,      0,      0,      0,      0,      0,      0,      0,      0    ],
    [      0,      0,      0,      0,      0,      0,      0,      0,      0,      0,      0,      0,      0,      0,      0,      0,      0,      0,      0,      1,      1,      1,      0,      0,      0,      0,      0,      0,      0,      0,      0,      0,      0,      0,      0,      0,      0,      0,      0    ],
    [      0,      0,      0,      0,      0,      0,      0,      0,      0,      0,      0,      0,      0,      0,      0,      0,      0,      0,      0,      0,      1,      1,      1,      0,      0,      0,      0,      0,      0,      0,      0,      0,      0,      0,      0,      0,      0,      0,      0    ],
    [      0,      0,      0,      0,      0,      0,      0,      0,      0,      0,      0,      0,      0,      0,      0,      0,      0,      0,      0,      0,      0,      1,      1,      1,      0,      0,      0,      0,      0,      0,      0,      0,      0,      0,      0,      0,      0,      0,      0    ],
    [      0,      0,      0,      0,      0,      0,      0,      0,      0,      0,      0,      0,      0,      0,      0,      0,      0,      0,      0,      0,      0,      0,      1,      1,      1,      0,      0,      0,      0,      0,      0,      0,      0,      0,      0,      0,      0,      0,      0    ],
    [      0,      0,      0,      0,      0,      0,      0,      0,      0,      0,      0,      0,      0,      0,      0,      0,      0,      0,      0,      0,      0,      0,      0,      1,      1,      1,      0,      0,      0,      0,      0,      0,      0,      0,      0,      0,      0,      0,      0    ],
    [      0,      0,      0,      0,      0,      0,      0,      0,      0,      0,      0,      0,      1,      0,      0,      0,      0,      0,      0,      0,      0,      0,      0,      0,      1,      1,      0,      0,      0,      0,      0,      0,      0,      0,      0,      0,      0,      0,      1    ],
    [      0,      0,      0,      0,      0,      0,      0,      0,      0,      0,      0,      0,      0,      0,      0,      0,      0,      0,      0,      0,      0,      0,      0,      0,      0,      0,      1,      1,      0,      0,      0,      0,      0,      0,      0,      0,      0,      0,      0    ],
    [      0,      0,      0,      0,      0,      0,      0,      0,      0,      0,      0,      0,      0,      0,      0,      0,      0,      0,      0,      0,      0,      0,      0,      0,      0,      0,      1,      1,      1,      0,      0,      0,      0,      0,      0,      0,      0,      0,      0    ],
    [      0,      0,      0,      0,      0,      0,      0,      0,      0,      0,      0,      0,      0,      0,      0,      0,      0,      0,      0,      0,      0,      0,      0,      0,      0,      0,      0,      1,      1,      1,      0,      0,      0,      0,      0,      0,      0,      0,      0    ],
    [      0,      0,      0,      0,      0,      0,      0,      0,      0,      0,      0,      0,      0,      0,      0,      0,      0,      0,      0,      0,      0,      0,      0,      0,      0,      0,      0,      0,      1,      1,      1,      0,      0,      0,      0,      0,      0,      0,      0    ],
    [      0,      0,      0,      0,      0,      0,      0,      0,      0,      0,      0,      0,      0,      0,      0,      0,      0,      0,      0,      0,      0,      0,      0,      0,      0,      0,      0,      0,      0,      1,      1,      1,      0,      0,      0,      0,      0,      0,      0    ],
    [      0,      0,      0,      0,      0,      0,      0,      0,      0,      0,      0,      0,      0,      0,      0,      0,      0,      0,      0,      0,      0,      0,      0,      0,      0,      0,      0,      0,      0,      0,      1,      1,      1,      0,      0,      0,      0,      0,      0    ],
    [      0,      0,      0,      0,      0,      0,      0,      0,      0,      0,      0,      0,      0,      0,      0,      0,      0,      0,      0,      0,      0,      0,      0,      0,      0,      0,      0,      0,      0,      0,      0,      1,      1,      1,      0,      0,      0,      0,      0    ],
    [      0,      0,      0,      0,      0,      0,      0,      0,      0,      0,      0,      0,      0,      0,      0,      0,      0,      0,      0,      0,      0,      0,      0,      0,      0,      0,      0,      0,      0,      0,      0,      0,      1,      1,      1,      0,      0,      0,      0    ],
    [      0,      0,      0,      0,      0,      0,      0,      0,      0,      0,      0,      0,      0,      0,      0,      0,      0,      0,      0,      0,      0,      0,      0,      0,      0,      0,      0,      0,      0,      0,      0,      0,      0,      1,      1,      1,      0,      0,      0    ],
    [      0,      0,      0,      0,      0,      0,      0,      0,      0,      0,      0,      0,      0,      0,      0,      0,      0,      0,      0,      0,      0,      0,      0,      0,      0,      0,      0,      0,      0,      0,      0,      0,      0,      0,      1,      1,      1,      0,      0    ],
    [      0,      0,      0,      0,      0,      0,      0,      0,      0,      0,      0,      0,      0,      0,      0,      0,      0,      0,      0,      0,      0,      0,      0,      0,      0,      0,      0,      0,      0,      0,      0,      0,      0,      0,      0,      1,      1,      1,      0    ],
    [      0,      0,      0,      0,      0,      0,      0,      0,      0,      0,      0,      0,      0,      0,      0,      0,      0,      0,      0,      0,      0,      0,      0,      0,      0,      0,      0,      0,      0,      0,      0,      0,      0,      0,      0,      0,      1,      1,      1    ],
    [      0,      0,      0,      0,      0,      0,      0,      0,      0,      0,      0,      0,      0,      0,      0,      0,      0,      0,      0,      0,      0,      0,      0,      0,      0,      1,      0,      0,      0,      0,      0,      0,      0,      0,      0,      0,      0,      1,      1    ]
  ]
}