{
  "MAPF": "CBS",
  "SAPF": "TDSP",
  "costFunction": "SIC",
  "heuristic": "",
  "nAgents": 5,
  "nNodes": 29,
  "connect": [
    [      1,      1,      0,      0,      0,      0,      0,      0,      0,      0,      1,      0,      0,      0,      0,      0,      0,      0,      0,      0,      0,      0,      0,      0,      0,      0,      0,      0,      0    ],
    [      1,      1,      1,      0,      0,      0,      0,      0,      0,      0,      0,      0,      0,      0,      0,      0,      0,      0,      0,      0,      0,      0,      0,      0,      0,      0,      0,      0,      0    ],
    [      0,      1,      1,      1,      0,      0,      0,      0,      0,      0,      0,      0,      0,      0,      0,      0,      0,      0,      0,      0,      0,      0,      0,      0,      0,      0,      0,      0,      0    ],
    [      0,      0,      1,      1,      1,      0,      0,      0,      0,      0,      0,      0,      0,      0,      0,      0,      0,      0,      0,      0,      0,      0,      0,      0,      0,      0,      0,      0,      0    ],
    [      0,      0,      0,      1,      1,      1,      0,      0,      0,      0,      0,      0,      0,      0,      0,      0,      0,      0,      0,      0,      0,      0,      0,      0,      0,      0,      0,      0,      0    ],
    [      0,      0,      0,      0,      1,      1,      1,      0,      0,      0,      0,      0,      0,      0,      0,      0,      0,      0,      0,      0,      0,      0,      0,      0,      0,      0,      0,      0,      0    ],
    [      0,      0,      0,      0,      0,      1,      1,      1,      0,      0,      0,      0,      0,      0,      0,      0,      0,      0,      0,      0,      0,      0,      0,      0,      0,      0,      0,      0,      0    ],
    [      0,      0,      0,      0,      0,      0,      1,      1,      1,      0,      0,      0,      0,      0,      0,      0,      0,      0,      0,      0,      0,      0,      0,      0,      0,      0,      0,      0,      0    ],
    [      0,      0,      0,      0,      0,      0,      0,      1,      1,      10,      0,      0,      0,      0,      0,      0,      0,      0,      0,      0,      0,      0,      0,      0,      0,      0,      0,      0,      0    ],
    [      0,      0,      0,      0,      0,      0,      0,      0,      10,      1,      0,      0,      0,      0,      0,      0,      0,      0,      0,      1,      0,      0,      0,      0,      0,      0,      0,      0,      0    ],
    [      1,      0,      0,      0,      0,      0,      0,      0,      0,      0,      1,      1,      0,      0,      0,      0,      0,      0,      0,      0,      1,      0,      0,      0,      0,      0,      0,      0,      0    ],
    [      0,      0,      0,      0,      0,      0,      0,      0,      0,      0,      1,      1,      1,      0,      0,      0,      0,      0,      0,      0,      0,      0,      0,      0,      0,      0,      0,      0,      0    ],
    [      0,      0,      0,      0,      0,      0,      0,      0,      0,      0,      0,      1,      1,      1,      0,      0,      0,      0,      0,      0,      0,      0,      0,      0,      0,      0,      0,      0,      0    ],
    [      0,      0,      0,      0,      0,      0,      0,      0,      0,      0,      0,      0,      1,      1,      1,      0,      0,      0,      0,      0,      0,      0,      0,      0,      0,      0,      0,      0,      0    ],
    [      0,      0,      0,      0,      0,      0,      0,      0,      0,      0,      0,      0,      0,      1,      1,      1,      0,      0,      0,      0,      0,      0,      0,      0,      0,      0,      0,      0,      0    ],
    [      0,      0,      0,      0,      0,      0,      0,      0,      0,      0,      0,      0,      0,      0,      1,      1,      1,      0,      0,      0,      0,      0,      0,      0,      0,      0,      0,      0,      0    ],
    [      0,      0,      0,      0,      0,      0,      0,      0,      0,      0,      0,      0,      0,      0,      0,      1,      1,      1,      0,      0,      0,      0,      0,      0,      0,      0,      0,      0,      0    ],
    [      0,      0,      0,      0,      0,      0,      0,      0,      0,      0,      0,      0,      0,      0,      0,      0,      1,      1,      1,      0,      0,      0,      0,      0,      0,      0,      0,      0,      0    ],
    [      0,      0,      0,      0,      0,      0,      0,      0,      0,      0,      0,      0,      0,      0,      0,      0,      0,      1,      1,      10,      0,      0,      0,      0,      0,      0,      0,      0,      0    ],
    [      0,      0,      0,      0,      0,      0,      0,      0,      0,      1,      0,      0,      0,      0,      0,      0,      0,      0,      10,      1,      0,      0,      0,      0,      0,      0,      0,      0,      0    ],
    [      0,      0,      0,      0,      0,      0,      0,      0,      0,      0,      1,      0,      0,      0,      0,      0,      0,      0,      0,      0,      1,      1,      0,      0,      0,      0,      0,      0,      0    ],
    [      0,      0,      0,      0,      0,      0,      0,      0,      0,      0,      0,      0,      0,      0,      0,      0,      0,      0,      0,      0,      1,      1,      1,      0,      0,      0,      0,      0,      0    ],
    [      0,      0,      0,      0,      0,      0,      0,      0,      0,      0,      0,      0,      0,      0,      0,      0,      0,      0,      0,      0,      0,      1,      1,      1,      0,      0,      0,      0,      0    ],
    [      0,      0,      0,      0,      0,      0,      0,      0,      0,      0,      0,      0,      0,      0,      0,      0,      0,      0,      0,      0,      0,      0,      1,      1,      1,      0,      0,      0,      0    ],
    [      0,      0,      0,      0,      0,      0,      0,      0,      0,      0,      0,      0,      0,      0,      0,      0,      0,      0,      0,      0,      0,      0,      0,      1,      1,      1,      0,      0,      0    ],
    [      0,      0,      0,      0,      0,      0,      0,      0,      0,      0,      0,      0,      0,      0,      0,      0,      0,      0,      0,      0,      0,      0,      0,      0,      1,      1,      1,      0,      0    ],
    [      0,      0,      0,      0,      0,      0,      0,      0,      0,      0,      0,      0,      0,      0,      0,      0,      0,      0,      0,      0,      0,      0,      0,      0,      0,      1,      1,      1,      0    ],
    [      0,      0,      0,      0,      0,      0,      0,      0,      0,      0,      0,      0,      0,      0,      0,      0,      0,      0,      0,      0,      0,      0,      0,      0,      0,      0,      1,      1,      1    ],
    [      0,      0,      0,      0,      0,      0,      0,      0,      0,      0,      0,      0,      0,      0,      0,      0,      0,      0,      0,      0,      0,      0,      0,      0,      0,      0,      0,      1,      1    ]
  ],
  "nodes": [
    [      2113,      21,      13,      0    ],
    [      2114,      21,      14,      1    ],
    [      2115,      21,      15,      2    ],
    [      2116,      21,      16,      3    ],
    [      2117,      21,      17,      4    ],
    [      2118,      21,      18,      5    ],
    [      2119,      21,      19,      6    ],
    [      2120,      21,      20,      7    ],
    [      2121,      21,      21,      8    ],
    [      2122,      21,      22,      9    ],
    [      2213,      22,      13,      10    ],
    [      2214,      22,      14,      11    ],
    [      2215,      22,      15,      12    ],
    [      2216,      22,      16,      13    ],
    [      2217,      22,      17,      14    ],
    [      2218,      22,      18,      15    ],
    [      2219,      22,      19,      16    ],
    [      2220,      22,      20,      17    ],
    [      2221,      22,      21,      18    ],
    [      2222,      22,      22,      19    ],
    [      2313,      23,      13,      20    ],
    [      2314,      23,      14,      21    ],
    [      2315,      23,      15,      22    ],
    [      2316,      23,      16,      23    ],
    [      2317,      23,      17,      24    ],
    [      2318,      23,      18,      25    ],
    [      2319,      23,      19,      26    ],
    [      2320,      23,      20,      27    ],
    [      2321,      23,      21,      28    ]
  ],
  "agents": [    {
      "ID": 0,
      "initPos": [        2220,        22,        20,        17      ],
      "endPos": [        2116,        21,        16,        3      ],
      "goalPos": [
        [          2115,          21,          15,          2        ],
        [          2315,          23,          15,          22        ],
        [          2218,          22,          18,          15        ],
        [          2121,          21,          21,          8        ],
        [          2319,          23,          19,          26        ]
      ]
    },
    {
      "ID": 1,
      "initPos": [        2216,        22,        16,        13      ],
      "endPos": [        2117,        21,        17,        4      ],
      "goalPos": [
        [          2316,          23,          16,          23        ],
        [          2319,          23,          19,          26        ],
        [          2313,          23,          13,          20        ],
        [          2215,          22,          15,          12        ],
        [          2221,          22,          21,          18        ]
      ]
    },
    {
      "ID": 2,
      "initPos": [        2218,        22,        18,        15      ],
      "endPos": [        2314,        23,        14,        21      ],
      "goalPos": [
        [          2213,          22,          13,          10        ],
        [          2222,          22,          22,          19        ],
        [          2114,          21,          14,          1        ],
        [          2120,          21,          20,          7        ],
        [          2318,          23,          18,          25        ]
      ]
    },
    {
      "ID": 3,
      "initPos": [        2113,        21,        13,        0      ],
      "endPos": [        2321,        23,        21,        28      ],
      "goalPos": [
        [          2217,          22,          17,          14        ],
        [          2222,          22,          22,          19        ],
        [          2115,          21,          15,          2        ],
        [          2122,          21,          22,          9        ],
        [          2219,          22,          19,          16        ]
      ]
    },
    {
      "ID": 4,
      "initPos": [        2114,        21,        14,        1      ],
      "endPos": [        2118,        21,        18,        5      ],
      "goalPos": [
        [          2313,          23,          13,          20        ],
        [          2221,          22,          21,          18        ],
        [          2115,          21,          15,          2        ],
        [          2313,          23,          13,          20        ],
        [          2219,          22,          19,          16        ]
      ]
    }
  ]
}