{
  "MAPF": "CBS",
  "SAPF": "TDSP",
  "costFunction": "SIC",
  "heuristic": "",
  "nAgents": 20,
  "nNodes": 52,
  "connect": [
    [      1,      1,      0,      0,      0,      0,      0,      0,      0,      0,      0,      0,      0,      0,      0,      0,      0,      0,      0,      0,      0,      0,      0,      0,      0,      0,      0,      0,      0,      0,      0,      0,      0,      0,      0,      0,      0,      0,      0,      0,      0,      0,      0,      0,      0,      0,      0,      0,      0,      0,      0,      0    ],
    [      1,      1,      1,      0,      0,      0,      0,      0,      0,      0,      0,      0,      0,      0,      0,      0,      0,      0,      0,      0,      0,      0,      0,      0,      0,      0,      0,      0,      0,      0,      0,      0,      0,      0,      0,      0,      0,      0,      0,      0,      0,      0,      0,      0,      0,      0,      0,      0,      0,      0,      0,      0    ],
    [      0,      1,      1,      1,      0,      0,      0,      0,      0,      0,      0,      0,      0,      0,      0,      0,      0,      0,      0,      0,      0,      0,      0,      0,      0,      0,      0,      0,      0,      0,      0,      0,      0,      0,      0,      0,      0,      0,      0,      0,      0,      0,      0,      0,      0,      0,      0,      0,      0,      0,      0,      0    ],
    [      0,      0,      1,      1,      1,      0,      0,      0,      0,      0,      0,      0,      0,      0,      0,      0,      0,      0,      0,      0,      0,      0,      0,      0,      0,      0,      0,      0,      0,      0,      0,      0,      0,      0,      0,      0,      0,      0,      0,      0,      0,      0,      0,      0,      0,      0,      0,      0,      0,      0,      0,      0    ],
    [      0,      0,      0,      1,      1,      1,      0,      0,      0,      0,      0,      0,      0,      0,      0,      0,      0,      0,      0,      0,      0,      0,      0,      0,      0,      0,      0,      0,      0,      0,      0,      0,      0,      0,      0,      0,      0,      0,      0,      0,      0,      0,      0,      0,      0,      0,      0,      0,      0,      0,      0,      0    ],
    [      0,      0,      0,      0,      1,      1,      1,      0,      0,      0,      0,      0,      0,      0,      0,      0,      0,      0,      0,      0,      0,      0,      0,      0,      0,      0,      0,      0,      0,      0,      0,      0,      0,      0,      0,      0,      0,      0,      0,      0,      0,      0,      0,      0,      0,      0,      0,      0,      0,      0,      0,      0    ],
    [      0,      0,      0,      0,      0,      1,      1,      1,      0,      0,      0,      0,      0,      0,      0,      0,      0,      0,      0,      0,      0,      0,      0,      0,      0,      0,      0,      0,      0,      0,      0,      0,      0,      0,      0,      0,      0,      0,      0,      0,      0,      0,      0,      0,      0,      0,      0,      0,      0,      0,      0,      0    ],
    [      0,      0,      0,      0,      0,      0,      1,      1,      1,      0,      0,      0,      0,      0,      0,      0,      0,      0,      0,      0,      0,      0,      0,      0,      0,      0,      0,      0,      0,      0,      0,      0,      0,      0,      0,      0,      0,      0,      0,      0,      0,      0,      0,      0,      0,      0,      0,      0,      0,      0,      0,      0    ],
    [      0,      0,      0,      0,      0,      0,      0,      1,      1,      1,      0,      0,      0,      0,      0,      0,      0,      0,      0,      0,      0,      0,      0,      0,      0,      0,      0,      0,      0,      0,      0,      0,      0,      0,      0,      0,      0,      0,      0,      0,      0,      0,      0,      0,      0,      0,      0,      0,      0,      0,      0,      0    ],
    [      0,      0,      0,      0,      0,      0,      0,      0,      1,      1,      1,      0,      0,      0,      0,      0,      0,      0,      0,      0,      0,      0,      0,      0,      0,      0,      0,      0,      0,      0,      0,      0,      0,      0,      0,      0,      0,      0,      0,      0,      0,      0,      0,      0,      0,      0,      0,      0,      0,      0,      0,      0    ],
    [      0,      0,      0,      0,      0,      0,      0,      0,      0,      1,      1,      1,      0,      0,      0,      0,      0,      0,      0,      0,      0,      0,      0,      0,      0,      0,      0,      0,      0,      0,      0,      0,      0,      0,      0,      0,      0,      0,      0,      0,      0,      0,      0,      0,      0,      0,      0,      0,      0,      0,      0,      0    ],
    [      0,      0,      0,      0,      0,      0,      0,      0,      0,      0,      1,      1,      1,      0,      0,      0,      0,      0,      0,      0,      0,      0,      0,      0,      0,      0,      0,      0,      0,      0,      0,      0,      0,      0,      0,      0,      0,      0,      0,      0,      0,      0,      0,      0,      0,      0,      0,      0,      0,      0,      0,      0    ],
    [      0,      0,      0,      0,      0,      0,      0,      0,      0,      0,      0,      1,      1,      0,      0,      0,      0,      0,      0,      0,      0,      0,      0,      0,      0,      1,      0,      0,      0,      0,      0,      0,      0,      0,      0,      0,      0,      0,      0,      0,      0,      0,      0,      0,      0,      0,      0,      0,      0,      0,      0,      0    ],
    [      0,      0,      0,      0,      0,      0,      0,      0,      0,      0,      0,      0,      0,      1,      1,      0,      0,      0,      0,      0,      0,      0,      0,      0,      0,      0,      0,      0,      0,      0,      0,      0,      0,      0,      0,      0,      0,      0,      0,      0,      0,      0,      0,      0,      0,      0,      0,      0,      0,      0,      0,      0    ],
    [      0,      0,      0,      0,      0,      0,      0,      0,      0,      0,      0,      0,      0,      1,      1,      1,      0,      0,      0,      0,      0,      0,      0,      0,      0,      0,      0,      0,      0,      0,      0,      0,      0,      0,      0,      0,      0,      0,      0,      0,      0,      0,      0,      0,      0,      0,      0,      0,      0,      0,      0,      0    ],
    [      0,      0,      0,      0,      0,      0,      0,      0,      0,      0,      0,      0,      0,      0,      1,      1,      1,      0,      0,      0,      0,      0,      0,      0,      0,      0,      0,      0,      0,      0,      0,      0,      0,      0,      0,      0,      0,      0,      0,      0,      0,      0,      0,      0,      0,      0,      0,      0,      0,      0,      0,      0    ],
    [      0,      0,      0,      0,      0,      0,      0,      0,      0,      0,      0,      0,      0,      0,      0,      1,      1,      1,      0,      0,      0,      0,      0,      0,      0,      0,      0,      0,      0,      0,      0,      0,      0,      0,      0,      0,      0,      0,      0,      0,      0,      0,      0,      0,      0,      0,      0,      0,      0,      0,      0,      0    ],
    [      0,      0,      0,      0,      0,      0,      0,      0,      0,      0,      0,      0,      0,      0,      0,      0,      1,      1,      1,      0,      0,      0,      0,      0,      0,      0,      0,      0,      0,      0,      0,      0,      0,      0,      0,      0,      0,      0,      0,      0,      0,      0,      0,      0,      0,      0,      0,      0,      0,      0,      0,      0    ],
    [      0,      0,      0,      0,      0,      0,      0,      0,      0,      0,      0,      0,      0,      0,      0,      0,      0,      1,      1,      1,      0,      0,      0,      0,      0,      0,      0,      0,      0,      0,      0,      0,      0,      0,      0,      0,      0,      0,      0,      0,      0,      0,      0,      0,      0,      0,      0,      0,      0,      0,      0,      0    ],
    [      0,      0,      0,      0,      0,      0,      0,      0,      0,      0,      0,      0,      0,      0,      0,      0,      0,      0,      1,      1,      1,      0,      0,      0,      0,      0,      0,      0,      0,      0,      0,      0,      0,      0,      0,      0,      0,      0,      0,      0,      0,      0,      0,      0,      0,      0,      0,      0,      0,      0,      0,      0    ],
    [      0,      0,      0,      0,      0,      0,      0,      0,      0,      0,      0,      0,      0,      0,      0,      0,      0,      0,      0,      1,      1,      1,      0,      0,      0,      0,      0,      0,      0,      0,      0,      0,      0,      0,      0,      0,      0,      0,      0,      0,      0,      0,      0,      0,      0,      0,      0,      0,      0,      0,      0,      0    ],
    [      0,      0,      0,      0,      0,      0,      0,      0,      0,      0,      0,      0,      0,      0,      0,      0,      0,      0,      0,      0,      1,      1,      1,      0,      0,      0,      0,      0,      0,      0,      0,      0,      0,      0,      0,      0,      0,      0,      0,      0,      0,      0,      0,      0,      0,      0,      0,      0,      0,      0,      0,      0    ],
    [      0,      0,      0,      0,      0,      0,      0,      0,      0,      0,      0,      0,      0,      0,      0,      0,      0,      0,      0,      0,      0,      1,      1,      1,      0,      0,      0,      0,      0,      0,      0,      0,      0,      0,      0,      0,      0,      0,      0,      0,      0,      0,      0,      0,      0,      0,      0,      0,      0,      0,      0,      0    ],
    [      0,      0,      0,      0,      0,      0,      0,      0,      0,      0,      0,      0,      0,      0,      0,      0,      0,      0,      0,      0,      0,      0,      1,      1,      1,      0,      0,      0,      0,      0,      0,      0,      0,      0,      0,      0,      0,      0,      0,      0,      0,      0,      0,      0,      0,      0,      0,      0,      0,      0,      0,      0    ],
    [      0,      0,      0,      0,      0,      0,      0,      0,      0,      0,      0,      0,      0,      0,      0,      0,      0,      0,      0,      0,      0,      0,      0,      1,      1,      1,      0,      0,      0,      0,      0,      0,      0,      0,      0,      0,      0,      0,      0,      0,      0,      0,      0,      0,      0,      0,      0,      0,      0,      0,      0,      0    ],
    [      0,      0,      0,      0,      0,      0,      0,      0,      0,      0,      0,      0,      1,      0,      0,      0,      0,      0,      0,      0,      0,      0,      0,      0,      1,      1,      0,      0,      0,      0,      0,      0,      0,      0,      0,      0,      0,      0,      1,      0,      0,      0,      0,      0,      0,      0,      0,      0,      0,      0,      0,      0    ],
    [      0,      0,      0,      0,      0,      0,      0,      0,      0,      0,      0,      0,      0,      0,      0,      0,      0,      0,      0,      0,      0,      0,      0,      0,      0,      0,      1,      1,      0,      0,      0,      0,      0,      0,      0,      0,      0,      0,      0,      0,      0,      0,      0,      0,      0,      0,      0,      0,      0,      0,      0,      0    ],
    [      0,      0,      0,      0,      0,      0,      0,      0,      0,      0,      0,      0,      0,      0,      0,      0,      0,      0,      0,      0,      0,      0,      0,      0,      0,      0,      1,      1,      1,      0,      0,      0,      0,      0,      0,      0,      0,      0,      0,      0,      0,      0,      0,      0,      0,      0,      0,      0,      0,      0,      0,      0    ],
    [      0,      0,      0,      0,      0,      0,      0,      0,      0,      0,      0,      0,      0,      0,      0,      0,      0,      0,      0,      0,      0,      0,      0,      0,      0,      0,      0,      1,      1,      1,      0,      0,      0,      0,      0,      0,      0,      0,      0,      0,      0,      0,      0,      0,      0,      0,      0,      0,      0,      0,      0,      0    ],
    [      0,      0,      0,      0,      0,      0,      0,      0,      0,      0,      0,      0,      0,      0,      0,      0,      0,      0,      0,      0,      0,      0,      0,      0,      0,      0,      0,      0,      1,      1,      1,      0,      0,      0,      0,      0,      0,      0,      0,      0,      0,      0,      0,      0,      0,      0,      0,      0,      0,      0,      0,      0    ],
    [      0,      0,      0,      0,      0,      0,      0,      0,      0,      0,      0,      0,      0,      0,      0,      0,      0,      0,      0,      0,      0,      0,      0,      0,      0,      0,      0,      0,      0,      1,      1,      1,      0,      0,      0,      0,      0,      0,      0,      0,      0,      0,      0,      0,      0,      0,      0,      0,      0,      0,      0,      0    ],
    [      0,      0,      0,      0,      0,      0,      0,      0,      0,      0,      0,      0,      0,      0,      0,      0,      0,      0,      0,      0,      0,      0,      0,      0,      0,      0,      0,      0,      0,      0,      1,      1,      1,      0,      0,      0,      0,      0,      0,      0,      0,      0,      0,      0,      0,      0,      0,      0,      0,      0,      0,      0    ],
    [      0,      0,      0,      0,      0,      0,      0,      0,      0,      0,      0,      0,      0,      0,      0,      0,      0,      0,      0,      0,      0,      0,      0,      0,      0,      0,      0,      0,      0,      0,      0,      1,      1,      1,      0,      0,      0,      0,      0,      0,      0,      0,      0,      0,      0,      0,      0,      0,      0,      0,      0,      0    ],
    [      0,      0,      0,      0,      0,      0,      0,      0,      0,      0,      0,      0,      0,      0,      0,      0,      0,      0,      0,      0,      0,      0,      0,      0,      0,      0,      0,      0,      0,      0,      0,      0,      1,      1,      1,      0,      0,      0,      0,      0,      0,      0,      0,      0,      0,      0,      0,      0,      0,      0,      0,      0    ],
    [      0,      0,      0,      0,      0,      0,      0,      0,      0,      0,      0,      0,      0,      0,      0,      0,      0,      0,      0,      0,      0,      0,      0,      0,      0,      0,      0,      0,      0,      0,      0,      0,      0,      1,      1,      1,      0,      0,      0,      0,      0,      0,      0,      0,      0,      0,      0,      0,      0,      0,      0,      0    ],
    [      0,      0,      0,      0,      0,      0,      0,      0,      0,      0,      0,      0,      0,      0,      0,      0,      0,      0,      0,      0,      0,      0,      0,      0,      0,      0,      0,      0,      0,      0,      0,      0,      0,      0,      1,      1,      1,      0,      0,      0,      0,      0,      0,      0,      0,      0,      0,      0,      0,      0,      0,      0    ],
    [      0,      0,      0,      0,      0,      0,      0,      0,      0,      0,      0,      0,      0,      0,      0,      0,      0,      0,      0,      0,      0,      0,      0,      0,      0,      0,      0,      0,      0,      0,      0,      0,      0,      0,      0,      1,      1,      1,      0,      0,      0,      0,      0,      0,      0,      0,      0,      0,      0,      0,      0,      0    ],
    [      0,      0,      0,      0,      0,      0,      0,      0,      0,      0,      0,      0,      0,      0,      0,      0,      0,      0,      0,      0,      0,      0,      0,      0,      0,      0,      0,      0,      0,      0,      0,      0,      0,      0,      0,      0,      1,      1,      1,      0,      0,      0,      0,      0,      0,      0,      0,      0,      0,      0,      0,      0    ],
    [      0,      0,      0,      0,      0,      0,      0,      0,      0,      0,      0,      0,      0,      0,      0,      0,      0,      0,      0,      0,      0,      0,      0,      0,      0,      1,      0,      0,      0,      0,      0,      0,      0,      0,      0,      0,      0,      1,      1,      0,      0,      0,      0,      0,      0,      0,      0,      0,      0,      0,      0,      1    ],
    [      0,      0,      0,      0,      0,      0,      0,      0,      0,      0,      0,      0,      0,      0,      0,      0,      0,      0,      0,      0,      0,      0,      0,      0,      0,      0,      0,      0,      0,      0,      0,      0,      0,      0,      0,      0,      0,      0,      0,      1,      1,      0,      0,      0,      0,      0,      0,      0,      0,      0,      0,      0    ],
    [      0,      0,      0,      0,      0,      0,      0,      0,      0,      0,      0,      0,      0,      0,      0,      0,      0,      0,      0,      0,      0,      0,      0,      0,      0,      0,      0,      0,      0,      0,      0,      0,      0,      0,      0,      0,      0,      0,      0,      1,      1,      1,      0,      0,      0,      0,      0,      0,      0,      0,      0,      0    ],
    [      0,      0,      0,      0,      0,      0,      0,      0,      0,      0,      0,      0,      0,      0,      0,      0,      0,      0,      0,      0,      0,      0,      0,      0,      0,      0,      0,      0,      0,      0,      0,      0,      0,      0,      0,      0,      0,      0,      0,      0,      1,      1,      1,      0,      0,      0,      0,      0,      0,      0,      0,      0    ],
    [      0,      0,      0,      0,      0,      0,      0,      0,      0,      0,      0,      0,      0,      0,      0,      0,      0,      0,      0,      0,      0,      0,      0,      0,      0,      0,      0,      0,      0,      0,      0,      0,      0,      0,      0,      0,      0,      0,      0,      0,      0,      1,      1,      1,      0,      0,      0,      0,      0,      0,      0,      0    ],
    [      0,      0,      0,      0,      0,      0,      0,      0,      0,      0,      0,      0,      0,      0,      0,      0,      0,      0,      0,      0,      0,      0,      0,      0,      0,      0,      0,      0,      0,      0,      0,      0,      0,      0,      0,      0,      0,      0,      0,      0,      0,      0,      1,      1,      1,      0,      0,      0,      0,      0,      0,      0    ],
    [      0,      0,      0,      0,      0,      0,      0,      0,      0,      0,      0,      0,      0,      0,      0,      0,      0,      0,      0,      0,      0,      0,      0,      0,      0,      0,      0,      0,      0,      0,      0,      0,      0,      0,      0,      0,      0,      0,      0,      0,      0,      0,      0,      1,      1,      1,      0,      0,      0,      0,      0,      0    ],
    [      0,      0,      0,      0,      0,      0,      0,      0,      0,      0,      0,      0,      0,      0,      0,      0,      0,      0,      0,      0,      0,      0,      0,      0,      0,      0,      0,      0,      0,      0,      0,      0,      0,      0,      0,      0,      0,      0,      0,      0,      0,      0,      0,      0,      1,      1,      1,      0,      0,      0,      0,      0    ],
    [      0,      0,      0,      0,      0,      0,      0,      0,      0,      0,      0,      0,      0,      0,      0,      0,      0,      0,      0,      0,      0,      0,      0,      0,      0,      0,      0,      0,      0,      0,      0,      0,      0,      0,      0,      0,      0,      0,      0,      0,      0,      0,      0,      0,      0,      1,      1,      1,      0,      0,      0,      0    ],
    [      0,      0,      0,      0,      0,      0,      0,      0,      0,      0,      0,      0,      0,      0,      0,      0,      0,      0,      0,      0,      0,      0,      0,      0,      0,      0,      0,      0,      0,      0,      0,      0,      0,      0,      0,      0,      0,      0,      0,      0,      0,      0,      0,      0,      0,      0,      1,      1,      1,      0,      0,      0    ],
    [      0,      0,      0,      0,      0,      0,      0,      0,      0,      0,      0,      0,      0,      0,      0,      0,      0,      0,      0,      0,      0,      0,      0,      0,      0,      0,      0,      0,      0,      0,      0,      0,      0,      0,      0,      0,      0,      0,      0,      0,      0,      0,      0,      0,      0,      0,      0,      1,      1,      1,      0,      0    ],
    [      0,      0,      0,      0,      0,      0,      0,      0,      0,      0,      0,      0,      0,      0,      0,      0,      0,      0,      0,      0,      0,      0,      0,      0,      0,      0,      0,      0,      0,      0,      0,      0,      0,      0,      0,      0,      0,      0,      0,      0,      0,      0,      0,      0,      0,      0,      0,      0,      1,      1,      1,      0    ],
    [      0,      0,      0,      0,      0,      0,      0,      0,      0,      0,      0,      0,      0,      0,      0,      0,      0,      0,      0,      0,      0,      0,      0,      0,      0,      0,      0,      0,      0,      0,      0,      0,      0,      0,      0,      0,      0,      0,      0,      0,      0,      0,      0,      0,      0,      0,      0,      0,      0,      1,      1,      1    ],
    [      0,      0,      0,      0,      0,      0,      0,      0,      0,      0,      0,      0,      0,      0,      0,      0,      0,      0,      0,      0,      0,      0,      0,      0,      0,      0,      0,      0,      0,      0,      0,      0,      0,      0,      0,      0,      0,      0,      1,      0,      0,      0,      0,      0,      0,      0,      0,      0,      0,      0,      1,      1    ]
  ],
  "nodes": [
    [      1701,      17,      1,      0    ],
    [      1702,      17,      2,      1    ],
    [      1703,      17,      3,      2    ],
    [      1704,      17,      4,      3    ],
    [      1705,      17,      5,      4    ],
    [      1706,      17,      6,      5    ],
    [      1707,      17,      7,      6    ],
    [      1708,      17,      8,      7    ],
    [      1709,      17,      9,      8    ],
    [      1710,      17,      10,      9    ],
    [      1711,      17,      11,      10    ],
    [      1712,      17,      12,      11    ],
    [      1713,      17,      13,      12    ],
    [      1801,      18,      1,      13    ],
    [      1802,      18,      2,      14    ],
    [      1803,      18,      3,      15    ],
    [      1804,      18,      4,      16    ],
    [      1805,      18,      5,      17    ],
    [      1806,      18,      6,      18    ],
    [      1807,      18,      7,      19    ],
    [      1808,      18,      8,      20    ],
    [      1809,      18,      9,      21    ],
    [      1810,      18,      10,      22    ],
    [      1811,      18,      11,      23    ],
    [      1812,      18,      12,      24    ],
    [      1813,      18,      13,      25    ],
    [      1901,      19,      1,      26    ],
    [      1902,      19,      2,      27    ],
    [      1903,      19,      3,      28    ],
    [      1904,      19,      4,      29    ],
    [      1905,      19,      5,      30    ],
    [      1906,      19,      6,      31    ],
    [      1907,      19,      7,      32    ],
    [      1908,      19,      8,      33    ],
    [      1909,      19,      9,      34    ],
    [      1910,      19,      10,      35    ],
    [      1911,      19,      11,      36    ],
    [      1912,      19,      12,      37    ],
    [      1913,      19,      13,      38    ],
    [      2001,      20,      1,      39    ],
    [      2002,      20,      2,      40    ],
    [      2003,      20,      3,      41    ],
    [      2004,      20,      4,      42    ],
    [      2005,      20,      5,      43    ],
    [      2006,      20,      6,      44    ],
    [      2007,      20,      7,      45    ],
    [      2008,      20,      8,      46    ],
    [      2009,      20,      9,      47    ],
    [      2010,      20,      10,      48    ],
    [      2011,      20,      11,      49    ],
    [      2012,      20,      12,      50    ],
    [      2013,      20,      13,      51    ]
  ],
  "agents": [    {
      "ID": 0,
      "initPos": [        1805,        18,        5,        17      ],
      "endPos": [        1802,        18,        2,        14      ],
      "goalPos": [
        [          2012,          20,          12,          50        ],
        [          1912,          19,          12,          37        ],
        [          1711,          17,          11,          10        ],
        [          2012,          20,          12,          50        ],
        [          1804,          18,          4,          16        ],
        [          1711,          17,          11,          10        ],
        [          2012,          20,          12,          50        ],
        [          1704,          17,          4,          3        ],
        [          1905,          19,          5,          30        ],
        [          1708,          17,          8,          7        ],
        [          1809,          18,          9,          21        ],
        [          1806,          18,          6,          18        ],
        [          1805,          18,          5,          17        ],
        [          1902,          19,          2,          27        ],
        [          1810,          18,          10,          22        ],
        [          2004,          20,          4,          42        ],
        [          2010,          20,          10,          48        ],
        [          1809,          18,          9,          21        ],
        [          1805,          18,          5,          17        ],
        [          2010,          20,          10,          48        ]
      ]
    },
    {
      "ID": 1,
      "initPos": [        1810,        18,        10,        22      ],
      "endPos": [        1907,        19,        7,        32      ],
      "goalPos": [
        [          1908,          19,          8,          33        ],
        [          1808,          18,          8,          20        ],
        [          1912,          19,          12,          37        ],
        [          1810,          18,          10,          22        ],
        [          1703,          17,          3,          2        ],
        [          1713,          17,          13,          12        ],
        [          1708,          17,          8,          7        ],
        [          2013,          20,          13,          51        ],
        [          1803,          18,          3,          15        ],
        [          2013,          20,          13,          51        ],
        [          1805,          18,          5,          17        ],
        [          1903,          19,          3,          28        ],
        [          1912,          19,          12,          37        ],
        [          1911,          19,          11,          36        ],
        [          2012,          20,          12,          50        ],
        [          1708,          17,          8,          7        ],
        [          1701,          17,          1,          0        ],
        [          2006,          20,          6,          44        ],
        [          1708,          17,          8,          7        ],
        [          1903,          19,          3,          28        ]
      ]
    },
    {
      "ID": 2,
      "initPos": [        1804,        18,        4,        16      ],
      "endPos": [        2007,        20,        7,        45      ],
      "goalPos": [
        [          1906,          19,          6,          31        ],
        [          2010,          20,          10,          48        ],
        [          1909,          19,          9,          34        ],
        [          1908,          19,          8,          33        ],
        [          1808,          18,          8,          20        ],
        [          2002,          20,          2,          40        ],
        [          1809,          18,          9,          21        ],
        [          2012,          20,          12,          50        ],
        [          1701,          17,          1,          0        ],
        [          2013,          20,          13,          51        ],
        [          2004,          20,          4,          42        ],
        [          1809,          18,          9,          21        ],
        [          1703,          17,          3,          2        ],
        [          1708,          17,          8,          7        ],
        [          2013,          20,          13,          51        ],
        [          1703,          17,          3,          2        ],
        [          1908,          19,          8,          33        ],
        [          2002,          20,          2,          40        ],
        [          1808,          18,          8,          20        ],
        [          1911,          19,          11,          36        ]
      ]
    },
    {
      "ID": 3,
      "initPos": [        2002,        20,        2,        40      ],
      "endPos": [        2011,        20,        11,        49      ],
      "goalPos": [
        [          1704,          17,          4,          3        ],
        [          1905,          19,          5,          30        ],
        [          1908,          19,          8,          33        ],
        [          1708,          17,          8,          7        ],
        [          1701,          17,          1,          0        ],
        [          1702,          17,          2,          1        ],
        [          1708,          17,          8,          7        ],
        [          2002,          20,          2,          40        ],
        [          1908,          19,          8,          33        ],
        [          2012,          20,          12,          50        ],
        [          2001,          20,          1,          39        ],
        [          2010,          20,          10,          48        ],
        [          1806,          18,          6,          18        ],
        [          1713,          17,          13,          12        ],
        [          1810,          18,          10,          22        ],
        [          2004,          20,          4,          42        ],
        [          1808,          18,          8,          20        ],
        [          2013,          20,          13,          51        ],
        [          1909,          19,          9,          34        ],
        [          1808,          18,          8,          20        ]
      ]
    },
    {
      "ID": 4,
      "initPos": [        2006,        20,        6,        44      ],
      "endPos": [        2009,        20,        9,        47      ],
      "goalPos": [
        [          1713,          17,          13,          12        ],
        [          1808,          18,          8,          20        ],
        [          1704,          17,          4,          3        ],
        [          1807,          18,          7,          19        ],
        [          2006,          20,          6,          44        ],
        [          2010,          20,          10,          48        ],
        [          1905,          19,          5,          30        ],
        [          1902,          19,          2,          27        ],
        [          2001,          20,          1,          39        ],
        [          1805,          18,          5,          17        ],
        [          1804,          18,          4,          16        ],
        [          2001,          20,          1,          39        ],
        [          1807,          18,          7,          19        ],
        [          2010,          20,          10,          48        ],
        [          2013,          20,          13,          51        ],
        [          1806,          18,          6,          18        ],
        [          2001,          20,          1,          39        ],
        [          2004,          20,          4,          42        ],
        [          1705,          17,          5,          4        ],
        [          1712,          17,          12,          11        ]
      ]
    },
    {
      "ID": 5,
      "initPos": [        1912,        19,        12,        37      ],
      "endPos": [        1801,        18,        1,        13      ],
      "goalPos": [
        [          1708,          17,          8,          7        ],
        [          1705,          17,          5,          4        ],
        [          1810,          18,          10,          22        ],
        [          2010,          20,          10,          48        ],
        [          1708,          17,          8,          7        ],
        [          1805,          18,          5,          17        ],
        [          1810,          18,          10,          22        ],
        [          1804,          18,          4,          16        ],
        [          1803,          18,          3,          15        ],
        [          1807,          18,          7,          19        ],
        [          1809,          18,          9,          21        ],
        [          1705,          17,          5,          4        ],
        [          2004,          20,          4,          42        ],
        [          1712,          17,          12,          11        ],
        [          1902,          19,          2,          27        ],
        [          2002,          20,          2,          40        ],
        [          2012,          20,          12,          50        ],
        [          1805,          18,          5,          17        ],
        [          1705,          17,          5,          4        ],
        [          1703,          17,          3,          2        ]
      ]
    },
    {
      "ID": 6,
      "initPos": [        1703,        17,        3,        2      ],
      "endPos": [        2005,        20,        5,        43      ],
      "goalPos": [
        [          2006,          20,          6,          44        ],
        [          1912,          19,          12,          37        ],
        [          1703,          17,          3,          2        ],
        [          1902,          19,          2,          27        ],
        [          1702,          17,          2,          1        ],
        [          1809,          18,          9,          21        ],
        [          1705,          17,          5,          4        ],
        [          1803,          18,          3,          15        ],
        [          1807,          18,          7,          19        ],
        [          1804,          18,          4,          16        ],
        [          1701,          17,          1,          0        ],
        [          1711,          17,          11,          10        ],
        [          2004,          20,          4,          42        ],
        [          1906,          19,          6,          31        ],
        [          1702,          17,          2,          1        ],
        [          1805,          18,          5,          17        ],
        [          2013,          20,          13,          51        ],
        [          1703,          17,          3,          2        ],
        [          1906,          19,          6,          31        ],
        [          1712,          17,          12,          11        ]
      ]
    },
    {
      "ID": 7,
      "initPos": [        1708,        17,        8,        7      ],
      "endPos": [        1904,        19,        4,        29      ],
      "goalPos": [
        [          1705,          17,          5,          4        ],
        [          1806,          18,          6,          18        ],
        [          2006,          20,          6,          44        ],
        [          1804,          18,          4,          16        ],
        [          2010,          20,          10,          48        ],
        [          1702,          17,          2,          1        ],
        [          1712,          17,          12,          11        ],
        [          1804,          18,          4,          16        ],
        [          2010,          20,          10,          48        ],
        [          1703,          17,          3,          2        ],
        [          1803,          18,          3,          15        ],
        [          1804,          18,          4,          16        ],
        [          1809,          18,          9,          21        ],
        [          2006,          20,          6,          44        ],
        [          1906,          19,          6,          31        ],
        [          1708,          17,          8,          7        ],
        [          2001,          20,          1,          39        ],
        [          1705,          17,          5,          4        ],
        [          1809,          18,          9,          21        ],
        [          1704,          17,          4,          3        ]
      ]
    },
    {
      "ID": 8,
      "initPos": [        1712,        17,        12,        11      ],
      "endPos": [        2003,        20,        3,        41      ],
      "goalPos": [
        [          1807,          18,          7,          19        ],
        [          1908,          19,          8,          33        ],
        [          1803,          18,          3,          15        ],
        [          1804,          18,          4,          16        ],
        [          1708,          17,          8,          7        ],
        [          1704,          17,          4,          3        ],
        [          1805,          18,          5,          17        ],
        [          1703,          17,          3,          2        ],
        [          2002,          20,          2,          40        ],
        [          1806,          18,          6,          18        ],
        [          2012,          20,          12,          50        ],
        [          1708,          17,          8,          7        ],
        [          1909,          19,          9,          34        ],
        [          1712,          17,          12,          11        ],
        [          1912,          19,          12,          37        ],
        [          1708,          17,          8,          7        ],
        [          1804,          18,          4,          16        ],
        [          1810,          18,          10,          22        ],
        [          2012,          20,          12,          50        ],
        [          1809,          18,          9,          21        ]
      ]
    },
    {
      "ID": 9,
      "initPos": [        1702,        17,        2,        1      ],
      "endPos": [        1706,        17,        6,        5      ],
      "goalPos": [
        [          1902,          19,          2,          27        ],
        [          1807,          18,          7,          19        ],
        [          2013,          20,          13,          51        ],
        [          2002,          20,          2,          40        ],
        [          1713,          17,          13,          12        ],
        [          1807,          18,          7,          19        ],
        [          1903,          19,          3,          28        ],
        [          2010,          20,          10,          48        ],
        [          1803,          18,          3,          15        ],
        [          1912,          19,          12,          37        ],
        [          2004,          20,          4,          42        ],
        [          1906,          19,          6,          31        ],
        [          1805,          18,          5,          17        ],
        [          1810,          18,          10,          22        ],
        [          2004,          20,          4,          42        ],
        [          1705,          17,          5,          4        ],
        [          1809,          18,          9,          21        ],
        [          1810,          18,          10,          22        ],
        [          2004,          20,          4,          42        ],
        [          1806,          18,          6,          18        ]
      ]
    },
    {
      "ID": 10,
      "initPos": [        2004,        20,        4,        42      ],
      "endPos": [        1913,        19,        13,        38      ],
      "goalPos": [
        [          1805,          18,          5,          17        ],
        [          1912,          19,          12,          37        ],
        [          1712,          17,          12,          11        ],
        [          1804,          18,          4,          16        ],
        [          1711,          17,          11,          10        ],
        [          1903,          19,          3,          28        ],
        [          1711,          17,          11,          10        ],
        [          1712,          17,          12,          11        ],
        [          1803,          18,          3,          15        ],
        [          1903,          19,          3,          28        ],
        [          1911,          19,          11,          36        ],
        [          1804,          18,          4,          16        ],
        [          2012,          20,          12,          50        ],
        [          2013,          20,          13,          51        ],
        [          2012,          20,          12,          50        ],
        [          1708,          17,          8,          7        ],
        [          1902,          19,          2,          27        ],
        [          2002,          20,          2,          40        ],
        [          1704,          17,          4,          3        ],
        [          2001,          20,          1,          39        ]
      ]
    },
    {
      "ID": 11,
      "initPos": [        1711,        17,        11,        10      ],
      "endPos": [        1812,        18,        12,        24      ],
      "goalPos": [
        [          1806,          18,          6,          18        ],
        [          1808,          18,          8,          20        ],
        [          1906,          19,          6,          31        ],
        [          1701,          17,          1,          0        ],
        [          2004,          20,          4,          42        ],
        [          1908,          19,          8,          33        ],
        [          2001,          20,          1,          39        ],
        [          1809,          18,          9,          21        ],
        [          1804,          18,          4,          16        ],
        [          2010,          20,          10,          48        ],
        [          2013,          20,          13,          51        ],
        [          2010,          20,          10,          48        ],
        [          1803,          18,          3,          15        ],
        [          1711,          17,          11,          10        ],
        [          1806,          18,          6,          18        ],
        [          1805,          18,          5,          17        ],
        [          1704,          17,          4,          3        ],
        [          1808,          18,          8,          20        ],
        [          1803,          18,          3,          15        ],
        [          1902,          19,          2,          27        ]
      ]
    },
    {
      "ID": 12,
      "initPos": [        1713,        17,        13,        12      ],
      "endPos": [        2008,        20,        8,        46      ],
      "goalPos": [
        [          1712,          17,          12,          11        ],
        [          1908,          19,          8,          33        ],
        [          1702,          17,          2,          1        ],
        [          1807,          18,          7,          19        ],
        [          1804,          18,          4,          16        ],
        [          1703,          17,          3,          2        ],
        [          1807,          18,          7,          19        ],
        [          2002,          20,          2,          40        ],
        [          2004,          20,          4,          42        ],
        [          1903,          19,          3,          28        ],
        [          2002,          20,          2,          40        ],
        [          1905,          19,          5,          30        ],
        [          1807,          18,          7,          19        ],
        [          1708,          17,          8,          7        ],
        [          1702,          17,          2,          1        ],
        [          1712,          17,          12,          11        ],
        [          1703,          17,          3,          2        ],
        [          1803,          18,          3,          15        ],
        [          1712,          17,          12,          11        ],
        [          1902,          19,          2,          27        ]
      ]
    },
    {
      "ID": 13,
      "initPos": [        1806,        18,        6,        18      ],
      "endPos": [        1707,        17,        7,        6      ],
      "goalPos": [
        [          2010,          20,          10,          48        ],
        [          2006,          20,          6,          44        ],
        [          1705,          17,          5,          4        ],
        [          1704,          17,          4,          3        ],
        [          1905,          19,          5,          30        ],
        [          2010,          20,          10,          48        ],
        [          2004,          20,          4,          42        ],
        [          2013,          20,          13,          51        ],
        [          1711,          17,          11,          10        ],
        [          1708,          17,          8,          7        ],
        [          1903,          19,          3,          28        ],
        [          1701,          17,          1,          0        ],
        [          1909,          19,          9,          34        ],
        [          1713,          17,          13,          12        ],
        [          1806,          18,          6,          18        ],
        [          1810,          18,          10,          22        ],
        [          1903,          19,          3,          28        ],
        [          1708,          17,          8,          7        ],
        [          1804,          18,          4,          16        ],
        [          1805,          18,          5,          17        ]
      ]
    },
    {
      "ID": 14,
      "initPos": [        1701,        17,        1,        0      ],
      "endPos": [        1709,        17,        9,        8      ],
      "goalPos": [
        [          2013,          20,          13,          51        ],
        [          1902,          19,          2,          27        ],
        [          1903,          19,          3,          28        ],
        [          1909,          19,          9,          34        ],
        [          1908,          19,          8,          33        ],
        [          1703,          17,          3,          2        ],
        [          1708,          17,          8,          7        ],
        [          1810,          18,          10,          22        ],
        [          1909,          19,          9,          34        ],
        [          1804,          18,          4,          16        ],
        [          1704,          17,          4,          3        ],
        [          1905,          19,          5,          30        ],
        [          1805,          18,          5,          17        ],
        [          2004,          20,          4,          42        ],
        [          1705,          17,          5,          4        ],
        [          1902,          19,          2,          27        ],
        [          1804,          18,          4,          16        ],
        [          1902,          19,          2,          27        ],
        [          2002,          20,          2,          40        ],
        [          1702,          17,          2,          1        ]
      ]
    },
    {
      "ID": 15,
      "initPos": [        2001,        20,        1,        39      ],
      "endPos": [        1710,        17,        10,        9      ],
      "goalPos": [
        [          1705,          17,          5,          4        ],
        [          1708,          17,          8,          7        ],
        [          1705,          17,          5,          4        ],
        [          1906,          19,          6,          31        ],
        [          1807,          18,          7,          19        ],
        [          2001,          20,          1,          39        ],
        [          1908,          19,          8,          33        ],
        [          2002,          20,          2,          40        ],
        [          1903,          19,          3,          28        ],
        [          1712,          17,          12,          11        ],
        [          1703,          17,          3,          2        ],
        [          1701,          17,          1,          0        ],
        [          1909,          19,          9,          34        ],
        [          1807,          18,          7,          19        ],
        [          1708,          17,          8,          7        ],
        [          1804,          18,          4,          16        ],
        [          1911,          19,          11,          36        ],
        [          1708,          17,          8,          7        ],
        [          2010,          20,          10,          48        ],
        [          1905,          19,          5,          30        ]
      ]
    },
    {
      "ID": 16,
      "initPos": [        1902,        19,        2,        27      ],
      "endPos": [        1813,        18,        13,        25      ],
      "goalPos": [
        [          1711,          17,          11,          10        ],
        [          2010,          20,          10,          48        ],
        [          1906,          19,          6,          31        ],
        [          1905,          19,          5,          30        ],
        [          2010,          20,          10,          48        ],
        [          1810,          18,          10,          22        ],
        [          1909,          19,          9,          34        ],
        [          1805,          18,          5,          17        ],
        [          1902,          19,          2,          27        ],
        [          2001,          20,          1,          39        ],
        [          1701,          17,          1,          0        ],
        [          2004,          20,          4,          42        ],
        [          1803,          18,          3,          15        ],
        [          2012,          20,          12,          50        ],
        [          1809,          18,          9,          21        ],
        [          1909,          19,          9,          34        ],
        [          1807,          18,          7,          19        ],
        [          1713,          17,          13,          12        ],
        [          1804,          18,          4,          16        ],
        [          1903,          19,          3,          28        ]
      ]
    },
    {
      "ID": 17,
      "initPos": [        1807,        18,        7,        19      ],
      "endPos": [        1811,        18,        11,        23      ],
      "goalPos": [
        [          1708,          17,          8,          7        ],
        [          1713,          17,          13,          12        ],
        [          1806,          18,          6,          18        ],
        [          1809,          18,          9,          21        ],
        [          1705,          17,          5,          4        ],
        [          1704,          17,          4,          3        ],
        [          1805,          18,          5,          17        ],
        [          1905,          19,          5,          30        ],
        [          1711,          17,          11,          10        ],
        [          1713,          17,          13,          12        ],
        [          2006,          20,          6,          44        ],
        [          1808,          18,          8,          20        ],
        [          1704,          17,          4,          3        ],
        [          2004,          20,          4,          42        ],
        [          1804,          18,          4,          16        ],
        [          1806,          18,          6,          18        ],
        [          2010,          20,          10,          48        ],
        [          2006,          20,          6,          44        ],
        [          1808,          18,          8,          20        ],
        [          1906,          19,          6,          31        ]
      ]
    },
    {
      "ID": 18,
      "initPos": [        2013,        20,        13,        51      ],
      "endPos": [        1910,        19,        10,        35      ],
      "goalPos": [
        [          1808,          18,          8,          20        ],
        [          1712,          17,          12,          11        ],
        [          2010,          20,          10,          48        ],
        [          1807,          18,          7,          19        ],
        [          1902,          19,          2,          27        ],
        [          1804,          18,          4,          16        ],
        [          1708,          17,          8,          7        ],
        [          1808,          18,          8,          20        ],
        [          1902,          19,          2,          27        ],
        [          1906,          19,          6,          31        ],
        [          1804,          18,          4,          16        ],
        [          1807,          18,          7,          19        ],
        [          2013,          20,          13,          51        ],
        [          1713,          17,          13,          12        ],
        [          1702,          17,          2,          1        ],
        [          2004,          20,          4,          42        ],
        [          1705,          17,          5,          4        ],
        [          2002,          20,          2,          40        ],
        [          1912,          19,          12,          37        ],
        [          1803,          18,          3,          15        ]
      ]
    },
    {
      "ID": 19,
      "initPos": [        1911,        19,        11,        36      ],
      "endPos": [        1901,        19,        1,        26      ],
      "goalPos": [
        [          1902,          19,          2,          27        ],
        [          1810,          18,          10,          22        ],
        [          1905,          19,          5,          30        ],
        [          1911,          19,          11,          36        ],
        [          1705,          17,          5,          4        ],
        [          1708,          17,          8,          7        ],
        [          2012,          20,          12,          50        ],
        [          1912,          19,          12,          37        ],
        [          1712,          17,          12,          11        ],
        [          1809,          18,          9,          21        ],
        [          1903,          19,          3,          28        ],
        [          1902,          19,          2,          27        ],
        [          1807,          18,          7,          19        ],
        [          1804,          18,          4,          16        ],
        [          1701,          17,          1,          0        ],
        [          2012,          20,          12,          50        ],
        [          1702,          17,          2,          1        ],
        [          2012,          20,          12,          50        ],
        [          1805,          18,          5,          17        ],
        [          2002,          20,          2,          40        ]
      ]
    }
  ]
}