{
  "MAPF": "CBS",
  "SAPF": "TDSP",
  "costFunction": "SIC",
  "heuristic": "",
  "nAgents": 50,
  "nNodes": 52,
  "connect": [
    [      1,      1,      0,      0,      0,      0,      0,      0,      0,      0,      0,      0,      0,      0,      0,      0,      0,      0,      0,      0,      0,      0,      0,      0,      0,      0,      0,      0,      0,      0,      0,      0,      0,      0,      0,      0,      0,      0,      0,      0,      0,      0,      0,      0,      0,      0,      0,      0,      0,      0,      0,      0    ],
    [      1,      1,      1,      0,      0,      0,      0,      0,      0,      0,      0,      0,      0,      0,      0,      0,      0,      0,      0,      0,      0,      0,      0,      0,      0,      0,      0,      0,      0,      0,      0,      0,      0,      0,      0,      0,      0,      0,      0,      0,      0,      0,      0,      0,      0,      0,      0,      0,      0,      0,      0,      0    ],
    [      0,      1,      1,      1,      0,      0,      0,      0,      0,      0,      0,      0,      0,      0,      0,      0,      0,      0,      0,      0,      0,      0,      0,      0,      0,      0,      0,      0,      0,      0,      0,      0,      0,      0,      0,      0,      0,      0,      0,      0,      0,      0,      0,      0,      0,      0,      0,      0,      0,      0,      0,      0    ],
    [      0,      0,      1,      1,      1,      0,      0,      0,      0,      0,      0,      0,      0,      0,      0,      0,      0,      0,      0,      0,      0,      0,      0,      0,      0,      0,      0,      0,      0,      0,      0,      0,      0,      0,      0,      0,      0,      0,      0,      0,      0,      0,      0,      0,      0,      0,      0,      0,      0,      0,      0,      0    ],
    [      0,      0,      0,      1,      1,      1,      0,      0,      0,      0,      0,      0,      0,      0,      0,      0,      0,      0,      0,      0,      0,      0,      0,      0,      0,      0,      0,      0,      0,      0,      0,      0,      0,      0,      0,      0,      0,      0,      0,      0,      0,      0,      0,      0,      0,      0,      0,      0,      0,      0,      0,      0    ],
    [      0,      0,      0,      0,      1,      1,      1,      0,      0,      0,      0,      0,      0,      0,      0,      0,      0,      0,      0,      0,      0,      0,      0,      0,      0,      0,      0,      0,      0,      0,      0,      0,      0,      0,      0,      0,      0,      0,      0,      0,      0,      0,      0,      0,      0,      0,      0,      0,      0,      0,      0,      0    ],
    [      0,      0,      0,      0,      0,      1,      1,      1,      0,      0,      0,      0,      0,      0,      0,      0,      0,      0,      0,      0,      0,      0,      0,      0,      0,      0,      0,      0,      0,      0,      0,      0,      0,      0,      0,      0,      0,      0,      0,      0,      0,      0,      0,      0,      0,      0,      0,      0,      0,      0,      0,      0    ],
    [      0,      0,      0,      0,      0,      0,      1,      1,      1,      0,      0,      0,      0,      0,      0,      0,      0,      0,      0,      0,      0,      0,      0,      0,      0,      0,      0,      0,      0,      0,      0,      0,      0,      0,      0,      0,      0,      0,      0,      0,      0,      0,      0,      0,      0,      0,      0,      0,      0,      0,      0,      0    ],
    [      0,      0,      0,      0,      0,      0,      0,      1,      1,      1,      0,      0,      0,      0,      0,      0,      0,      0,      0,      0,      0,      0,      0,      0,      0,      0,      0,      0,      0,      0,      0,      0,      0,      0,      0,      0,      0,      0,      0,      0,      0,      0,      0,      0,      0,      0,      0,      0,      0,      0,      0,      0    ],
    [      0,      0,      0,      0,      0,      0,      0,      0,      1,      1,      1,      0,      0,      0,      0,      0,      0,      0,      0,      0,      0,      0,      0,      0,      0,      0,      0,      0,      0,      0,      0,      0,      0,      0,      0,      0,      0,      0,      0,      0,      0,      0,      0,      0,      0,      0,      0,      0,      0,      0,      0,      0    ],
    [      0,      0,      0,      0,      0,      0,      0,      0,      0,      1,      1,      1,      0,      0,      0,      0,      0,      0,      0,      0,      0,      0,      0,      0,      0,      0,      0,      0,      0,      0,      0,      0,      0,      0,      0,      0,      0,      0,      0,      0,      0,      0,      0,      0,      0,      0,      0,      0,      0,      0,      0,      0    ],
    [      0,      0,      0,      0,      0,      0,      0,      0,      0,      0,      1,      1,      1,      0,      0,      0,      0,      0,      0,      0,      0,      0,      0,      0,      0,      0,      0,      0,      0,      0,      0,      0,      0,      0,      0,      0,      0,      0,      0,      0,      0,      0,      0,      0,      0,      0,      0,      0,      0,      0,      0,      0    ],
    [      0,      0,      0,      0,      0,      0,      0,      0,      0,      0,      0,      1,      1,      0,      0,      0,      0,      0,      0,      0,      0,      0,      0,      0,      0,      1,      0,      0,      0,      0,      0,      0,      0,      0,      0,      0,      0,      0,      0,      0,      0,      0,      0,      0,      0,      0,      0,      0,      0,      0,      0,      0    ],
    [      0,      0,      0,      0,      0,      0,      0,      0,      0,      0,      0,      0,      0,      1,      1,      0,      0,      0,      0,      0,      0,      0,      0,      0,      0,      0,      0,      0,      0,      0,      0,      0,      0,      0,      0,      0,      0,      0,      0,      0,      0,      0,      0,      0,      0,      0,      0,      0,      0,      0,      0,      0    ],
    [      0,      0,      0,      0,      0,      0,      0,      0,      0,      0,      0,      0,      0,      1,      1,      1,      0,      0,      0,      0,      0,      0,      0,      0,      0,      0,      0,      0,      0,      0,      0,      0,      0,      0,      0,      0,      0,      0,      0,      0,      0,      0,      0,      0,      0,      0,      0,      0,      0,      0,      0,      0    ],
    [      0,      0,      0,      0,      0,      0,      0,      0,      0,      0,      0,      0,      0,      0,      1,      1,      1,      0,      0,      0,      0,      0,      0,      0,      0,      0,      0,      0,      0,      0,      0,      0,      0,      0,      0,      0,      0,      0,      0,      0,      0,      0,      0,      0,      0,      0,      0,      0,      0,      0,      0,      0    ],
    [      0,      0,      0,      0,      0,      0,      0,      0,      0,      0,      0,      0,      0,      0,      0,      1,      1,      1,      0,      0,      0,      0,      0,      0,      0,      0,      0,      0,      0,      0,      0,      0,      0,      0,      0,      0,      0,      0,      0,      0,      0,      0,      0,      0,      0,      0,      0,      0,      0,      0,      0,      0    ],
    [      0,      0,      0,      0,      0,      0,      0,      0,      0,      0,      0,      0,      0,      0,      0,      0,      1,      1,      1,      0,      0,      0,      0,      0,      0,      0,      0,      0,      0,      0,      0,      0,      0,      0,      0,      0,      0,      0,      0,      0,      0,      0,      0,      0,      0,      0,      0,      0,      0,      0,      0,      0    ],
    [      0,      0,      0,      0,      0,      0,      0,      0,      0,      0,      0,      0,      0,      0,      0,      0,      0,      1,      1,      1,      0,      0,      0,      0,      0,      0,      0,      0,      0,      0,      0,      0,      0,      0,      0,      0,      0,      0,      0,      0,      0,      0,      0,      0,      0,      0,      0,      0,      0,      0,      0,      0    ],
    [      0,      0,      0,      0,      0,      0,      0,      0,      0,      0,      0,      0,      0,      0,      0,      0,      0,      0,      1,      1,      1,      0,      0,      0,      0,      0,      0,      0,      0,      0,      0,      0,      0,      0,      0,      0,      0,      0,      0,      0,      0,      0,      0,      0,      0,      0,      0,      0,      0,      0,      0,      0    ],
    [      0,      0,      0,      0,      0,      0,      0,      0,      0,      0,      0,      0,      0,      0,      0,      0,      0,      0,      0,      1,      1,      1,      0,      0,      0,      0,      0,      0,      0,      0,      0,      0,      0,      0,      0,      0,      0,      0,      0,      0,      0,      0,      0,      0,      0,      0,      0,      0,      0,      0,      0,      0    ],
    [      0,      0,      0,      0,      0,      0,      0,      0,      0,      0,      0,      0,      0,      0,      0,      0,      0,      0,      0,      0,      1,      1,      1,      0,      0,      0,      0,      0,      0,      0,      0,      0,      0,      0,      0,      0,      0,      0,      0,      0,      0,      0,      0,      0,      0,      0,      0,      0,      0,      0,      0,      0    ],
    [      0,      0,      0,      0,      0,      0,      0,      0,      0,      0,      0,      0,      0,      0,      0,      0,      0,      0,      0,      0,      0,      1,      1,      1,      0,      0,      0,      0,      0,      0,      0,      0,      0,      0,      0,      0,      0,      0,      0,      0,      0,      0,      0,      0,      0,      0,      0,      0,      0,      0,      0,      0    ],
    [      0,      0,      0,      0,      0,      0,      0,      0,      0,      0,      0,      0,      0,      0,      0,      0,      0,      0,      0,      0,      0,      0,      1,      1,      1,      0,      0,      0,      0,      0,      0,      0,      0,      0,      0,      0,      0,      0,      0,      0,      0,      0,      0,      0,      0,      0,      0,      0,      0,      0,      0,      0    ],
    [      0,      0,      0,      0,      0,      0,      0,      0,      0,      0,      0,      0,      0,      0,      0,      0,      0,      0,      0,      0,      0,      0,      0,      1,      1,      1,      0,      0,      0,      0,      0,      0,      0,      0,      0,      0,      0,      0,      0,      0,      0,      0,      0,      0,      0,      0,      0,      0,      0,      0,      0,      0    ],
    [      0,      0,      0,      0,      0,      0,      0,      0,      0,      0,      0,      0,      1,      0,      0,      0,      0,      0,      0,      0,      0,      0,      0,      0,      1,      1,      0,      0,      0,      0,      0,      0,      0,      0,      0,      0,      0,      0,      1,      0,      0,      0,      0,      0,      0,      0,      0,      0,      0,      0,      0,      0    ],
    [      0,      0,      0,      0,      0,      0,      0,      0,      0,      0,      0,      0,      0,      0,      0,      0,      0,      0,      0,      0,      0,      0,      0,      0,      0,      0,      1,      1,      0,      0,      0,      0,      0,      0,      0,      0,      0,      0,      0,      0,      0,      0,      0,      0,      0,      0,      0,      0,      0,      0,      0,      0    ],
    [      0,      0,      0,      0,      0,      0,      0,      0,      0,      0,      0,      0,      0,      0,      0,      0,      0,      0,      0,      0,      0,      0,      0,      0,      0,      0,      1,      1,      1,      0,      0,      0,      0,      0,      0,      0,      0,      0,      0,      0,      0,      0,      0,      0,      0,      0,      0,      0,      0,      0,      0,      0    ],
    [      0,      0,      0,      0,      0,      0,      0,      0,      0,      0,      0,      0,      0,      0,      0,      0,      0,      0,      0,      0,      0,      0,      0,      0,      0,      0,      0,      1,      1,      1,      0,      0,      0,      0,      0,      0,      0,      0,      0,      0,      0,      0,      0,      0,      0,      0,      0,      0,      0,      0,      0,      0    ],
    [      0,      0,      0,      0,      0,      0,      0,      0,      0,      0,      0,      0,      0,      0,      0,      0,      0,      0,      0,      0,      0,      0,      0,      0,      0,      0,      0,      0,      1,      1,      1,      0,      0,      0,      0,      0,      0,      0,      0,      0,      0,      0,      0,      0,      0,      0,      0,      0,      0,      0,      0,      0    ],
    [      0,      0,      0,      0,      0,      0,      0,      0,      0,      0,      0,      0,      0,      0,      0,      0,      0,      0,      0,      0,      0,      0,      0,      0,      0,      0,      0,      0,      0,      1,      1,      1,      0,      0,      0,      0,      0,      0,      0,      0,      0,      0,      0,      0,      0,      0,      0,      0,      0,      0,      0,      0    ],
    [      0,      0,      0,      0,      0,      0,      0,      0,      0,      0,      0,      0,      0,      0,      0,      0,      0,      0,      0,      0,      0,      0,      0,      0,      0,      0,      0,      0,      0,      0,      1,      1,      1,      0,      0,      0,      0,      0,      0,      0,      0,      0,      0,      0,      0,      0,      0,      0,      0,      0,      0,      0    ],
    [      0,      0,      0,      0,      0,      0,      0,      0,      0,      0,      0,      0,      0,      0,      0,      0,      0,      0,      0,      0,      0,      0,      0,      0,      0,      0,      0,      0,      0,      0,      0,      1,      1,      1,      0,      0,      0,      0,      0,      0,      0,      0,      0,      0,      0,      0,      0,      0,      0,      0,      0,      0    ],
    [      0,      0,      0,      0,      0,      0,      0,      0,      0,      0,      0,      0,      0,      0,      0,      0,      0,      0,      0,      0,      0,      0,      0,      0,      0,      0,      0,      0,      0,      0,      0,      0,      1,      1,      1,      0,      0,      0,      0,      0,      0,      0,      0,      0,      0,      0,      0,      0,      0,      0,      0,      0    ],
    [      0,      0,      0,      0,      0,      0,      0,      0,      0,      0,      0,      0,      0,      0,      0,      0,      0,      0,      0,      0,      0,      0,      0,      0,      0,      0,      0,      0,      0,      0,      0,      0,      0,      1,      1,      1,      0,      0,      0,      0,      0,      0,      0,      0,      0,      0,      0,      0,      0,      0,      0,      0    ],
    [      0,      0,      0,      0,      0,      0,      0,      0,      0,      0,      0,      0,      0,      0,      0,      0,      0,      0,      0,      0,      0,      0,      0,      0,      0,      0,      0,      0,      0,      0,      0,      0,      0,      0,      1,      1,      1,      0,      0,      0,      0,      0,      0,      0,      0,      0,      0,      0,      0,      0,      0,      0    ],
    [      0,      0,      0,      0,      0,      0,      0,      0,      0,      0,      0,      0,      0,      0,      0,      0,      0,      0,      0,      0,      0,      0,      0,      0,      0,      0,      0,      0,      0,      0,      0,      0,      0,      0,      0,      1,      1,      1,      0,      0,      0,      0,      0,      0,      0,      0,      0,      0,      0,      0,      0,      0    ],
    [      0,      0,      0,      0,      0,      0,      0,      0,      0,      0,      0,      0,      0,      0,      0,      0,      0,      0,      0,      0,      0,      0,      0,      0,      0,      0,      0,      0,      0,      0,      0,      0,      0,      0,      0,      0,      1,      1,      1,      0,      0,      0,      0,      0,      0,      0,      0,      0,      0,      0,      0,      0    ],
    [      0,      0,      0,      0,      0,      0,      0,      0,      0,      0,      0,      0,      0,      0,      0,      0,      0,      0,      0,      0,      0,      0,      0,      0,      0,      1,      0,      0,      0,      0,      0,      0,      0,      0,      0,      0,      0,      1,      1,      0,      0,      0,      0,      0,      0,      0,      0,      0,      0,      0,      0,      1    ],
    [      0,      0,      0,      0,      0,      0,      0,      0,      0,      0,      0,      0,      0,      0,      0,      0,      0,      0,      0,      0,      0,      0,      0,      0,      0,      0,      0,      0,      0,      0,      0,      0,      0,      0,      0,      0,      0,      0,      0,      1,      1,      0,      0,      0,      0,      0,      0,      0,      0,      0,      0,      0    ],
    [      0,      0,      0,      0,      0,      0,      0,      0,      0,      0,      0,      0,      0,      0,      0,      0,      0,      0,      0,      0,      0,      0,      0,      0,      0,      0,      0,      0,      0,      0,      0,      0,      0,      0,      0,      0,      0,      0,      0,      1,      1,      1,      0,      0,      0,      0,      0,      0,      0,      0,      0,      0    ],
    [      0,      0,      0,      0,      0,      0,      0,      0,      0,      0,      0,      0,      0,      0,      0,      0,      0,      0,      0,      0,      0,      0,      0,      0,      0,      0,      0,      0,      0,      0,      0,      0,      0,      0,      0,      0,      0,      0,      0,      0,      1,      1,      1,      0,      0,      0,      0,      0,      0,      0,      0,      0    ],
    [      0,      0,      0,      0,      0,      0,      0,      0,      0,      0,      0,      0,      0,      0,      0,      0,      0,      0,      0,      0,      0,      0,      0,      0,      0,      0,      0,      0,      0,      0,      0,      0,      0,      0,      0,      0,      0,      0,      0,      0,      0,      1,      1,      1,      0,      0,      0,      0,      0,      0,      0,      0    ],
    [      0,      0,      0,      0,      0,      0,      0,      0,      0,      0,      0,      0,      0,      0,      0,      0,      0,      0,      0,      0,      0,      0,      0,      0,      0,      0,      0,      0,      0,      0,      0,      0,      0,      0,      0,      0,      0,      0,      0,      0,      0,      0,      1,      1,      1,      0,      0,      0,      0,      0,      0,      0    ],
    [      0,      0,      0,      0,      0,      0,      0,      0,      0,      0,      0,      0,      0,      0,      0,      0,      0,      0,      0,      0,      0,      0,      0,      0,      0,      0,      0,      0,      0,      0,      0,      0,      0,      0,      0,      0,      0,      0,      0,      0,      0,      0,      0,      1,      1,      1,      0,      0,      0,      0,      0,      0    ],
    [      0,      0,      0,      0,      0,      0,      0,      0,      0,      0,      0,      0,      0,      0,      0,      0,      0,      0,      0,      0,      0,      0,      0,      0,      0,      0,      0,      0,      0,      0,      0,      0,      0,      0,      0,      0,      0,      0,      0,      0,      0,      0,      0,      0,      1,      1,      1,      0,      0,      0,      0,      0    ],
    [      0,      0,      0,      0,      0,      0,      0,      0,      0,      0,      0,      0,      0,      0,      0,      0,      0,      0,      0,      0,      0,      0,      0,      0,      0,      0,      0,      0,      0,      0,      0,      0,      0,      0,      0,      0,      0,      0,      0,      0,      0,      0,      0,      0,      0,      1,      1,      1,      0,      0,      0,      0    ],
    [      0,      0,      0,      0,      0,      0,      0,      0,      0,      0,      0,      0,      0,      0,      0,      0,      0,      0,      0,      0,      0,      0,      0,      0,      0,      0,      0,      0,      0,      0,      0,      0,      0,      0,      0,      0,      0,      0,      0,      0,      0,      0,      0,      0,      0,      0,      1,      1,      1,      0,      0,      0    ],
    [      0,      0,      0,      0,      0,      0,      0,      0,      0,      0,      0,      0,      0,      0,      0,      0,      0,      0,      0,      0,      0,      0,      0,      0,      0,      0,      0,      0,      0,      0,      0,      0,      0,      0,      0,      0,      0,      0,      0,      0,      0,      0,      0,      0,      0,      0,      0,      1,      1,      1,      0,      0    ],
    [      0,      0,      0,      0,      0,      0,      0,      0,      0,      0,      0,      0,      0,      0,      0,      0,      0,      0,      0,      0,      0,      0,      0,      0,      0,      0,      0,      0,      0,      0,      0,      0,      0,      0,      0,      0,      0,      0,      0,      0,      0,      0,      0,      0,      0,      0,      0,      0,      1,      1,      1,      0    ],
    [      0,      0,      0,      0,      0,      0,      0,      0,      0,      0,      0,      0,      0,      0,      0,      0,      0,      0,      0,      0,      0,      0,      0,      0,      0,      0,      0,      0,      0,      0,      0,      0,      0,      0,      0,      0,      0,      0,      0,      0,      0,      0,      0,      0,      0,      0,      0,      0,      0,      1,      1,      1    ],
    [      0,      0,      0,      0,      0,      0,      0,      0,      0,      0,      0,      0,      0,      0,      0,      0,      0,      0,      0,      0,      0,      0,      0,      0,      0,      0,      0,      0,      0,      0,      0,      0,      0,      0,      0,      0,      0,      0,      1,      0,      0,      0,      0,      0,      0,      0,      0,      0,      0,      0,      1,      1    ]
  ],
  "nodes": [
    [      1701,      17,      1,      0    ],
    [      1702,      17,      2,      1    ],
    [      1703,      17,      3,      2    ],
    [      1704,      17,      4,      3    ],
    [      1705,      17,      5,      4    ],
    [      1706,      17,      6,      5    ],
    [      1707,      17,      7,      6    ],
    [      1708,      17,      8,      7    ],
    [      1709,      17,      9,      8    ],
    [      1710,      17,      10,      9    ],
    [      1711,      17,      11,      10    ],
    [      1712,      17,      12,      11    ],
    [      1713,      17,      13,      12    ],
    [      1801,      18,      1,      13    ],
    [      1802,      18,      2,      14    ],
    [      1803,      18,      3,      15    ],
    [      1804,      18,      4,      16    ],
    [      1805,      18,      5,      17    ],
    [      1806,      18,      6,      18    ],
    [      1807,      18,      7,      19    ],
    [      1808,      18,      8,      20    ],
    [      1809,      18,      9,      21    ],
    [      1810,      18,      10,      22    ],
    [      1811,      18,      11,      23    ],
    [      1812,      18,      12,      24    ],
    [      1813,      18,      13,      25    ],
    [      1901,      19,      1,      26    ],
    [      1902,      19,      2,      27    ],
    [      1903,      19,      3,      28    ],
    [      1904,      19,      4,      29    ],
    [      1905,      19,      5,      30    ],
    [      1906,      19,      6,      31    ],
    [      1907,      19,      7,      32    ],
    [      1908,      19,      8,      33    ],
    [      1909,      19,      9,      34    ],
    [      1910,      19,      10,      35    ],
    [      1911,      19,      11,      36    ],
    [      1912,      19,      12,      37    ],
    [      1913,      19,      13,      38    ],
    [      2001,      20,      1,      39    ],
    [      2002,      20,      2,      40    ],
    [      2003,      20,      3,      41    ],
    [      2004,      20,      4,      42    ],
    [      2005,      20,      5,      43    ],
    [      2006,      20,      6,      44    ],
    [      2007,      20,      7,      45    ],
    [      2008,      20,      8,      46    ],
    [      2009,      20,      9,      47    ],
    [      2010,      20,      10,      48    ],
    [      2011,      20,      11,      49    ],
    [      2012,      20,      12,      50    ],
    [      2013,      20,      13,      51    ]
  ],
  "agents": [    {
      "ID": 0,
      "initPos": [        1807,        18,        7,        19      ],
      "endPos": [        1807,        18,        7,        19      ],
      "goalPos": [
        [          1912,          19,          12,          37        ]
      ]
    },
    {
      "ID": 1,
      "initPos": [        2005,        20,        5,        43      ],
      "endPos": [        2005,        20,        5,        43      ],
      "goalPos": [
        [          1912,          19,          12,          37        ]
      ]
    },
    {
      "ID": 2,
      "initPos": [        1806,        18,        6,        18      ],
      "endPos": [        1806,        18,        6,        18      ],
      "goalPos": [
        [          1912,          19,          12,          37        ]
      ]
    },
    {
      "ID": 3,
      "initPos": [        2013,        20,        13,        51      ],
      "endPos": [        2013,        20,        13,        51      ],
      "goalPos": [
        [          1912,          19,          12,          37        ]
      ]
    },
    {
      "ID": 4,
      "initPos": [        1704,        17,        4,        3      ],
      "endPos": [        1704,        17,        4,        3      ],
      "goalPos": [
        [          1903,          19,          3,          28        ]
      ]
    },
    {
      "ID": 5,
      "initPos": [        1708,        17,        8,        7      ],
      "endPos": [        1708,        17,        8,        7      ],
      "goalPos": [
        [          1912,          19,          12,          37        ]
      ]
    },
    {
      "ID": 6,
      "initPos": [        2002,        20,        2,        40      ],
      "endPos": [        2002,        20,        2,        40      ],
      "goalPos": [
        [          1903,          19,          3,          28        ]
      ]
    },
    {
      "ID": 7,
      "initPos": [        2001,        20,        1,        39      ],
      "endPos": [        2001,        20,        1,        39      ],
      "goalPos": [
        [          1912,          19,          12,          37        ]
      ]
    },
    {
      "ID": 8,
      "initPos": [        1710,        17,        10,        9      ],
      "endPos": [        1710,        17,        10,        9      ],
      "goalPos": [
        [          1912,          19,          12,          37        ]
      ]
    },
    {
      "ID": 9,
      "initPos": [        1713,        17,        13,        12      ],
      "endPos": [        1713,        17,        13,        12      ],
      "goalPos": [
        [          1912,          19,          12,          37        ]
      ]
    },
    {
      "ID": 10,
      "initPos": [        2011,        20,        11,        49      ],
      "endPos": [        2011,        20,        11,        49      ],
      "goalPos": [
        [          1903,          19,          3,          28        ]
      ]
    },
    {
      "ID": 11,
      "initPos": [        1913,        19,        13,        38      ],
      "endPos": [        1913,        19,        13,        38      ],
      "goalPos": [
        [          1903,          19,          3,          28        ]
      ]
    },
    {
      "ID": 12,
      "initPos": [        1909,        19,        9,        34      ],
      "endPos": [        1909,        19,        9,        34      ],
      "goalPos": [
        [          1903,          19,          3,          28        ]
      ]
    },
    {
      "ID": 13,
      "initPos": [        1905,        19,        5,        30      ],
      "endPos": [        1905,        19,        5,        30      ],
      "goalPos": [
        [          1903,          19,          3,          28        ]
      ]
    },
    {
      "ID": 14,
      "initPos": [        2009,        20,        9,        47      ],
      "endPos": [        2009,        20,        9,        47      ],
      "goalPos": [
        [          1912,          19,          12,          37        ]
      ]
    },
    {
      "ID": 15,
      "initPos": [        1805,        18,        5,        17      ],
      "endPos": [        1805,        18,        5,        17      ],
      "goalPos": [
        [          1912,          19,          12,          37        ]
      ]
    },
    {
      "ID": 16,
      "initPos": [        1904,        19,        4,        29      ],
      "endPos": [        1904,        19,        4,        29      ],
      "goalPos": [
        [          1912,          19,          12,          37        ]
      ]
    },
    {
      "ID": 17,
      "initPos": [        1911,        19,        11,        36      ],
      "endPos": [        1911,        19,        11,        36      ],
      "goalPos": [
        [          1912,          19,          12,          37        ]
      ]
    },
    {
      "ID": 18,
      "initPos": [        1906,        19,        6,        31      ],
      "endPos": [        1906,        19,        6,        31      ],
      "goalPos": [
        [          1912,          19,          12,          37        ]
      ]
    },
    {
      "ID": 19,
      "initPos": [        1702,        17,        2,        1      ],
      "endPos": [        1702,        17,        2,        1      ],
      "goalPos": [
        [          1903,          19,          3,          28        ]
      ]
    },
    {
      "ID": 20,
      "initPos": [        2004,        20,        4,        42      ],
      "endPos": [        2004,        20,        4,        42      ],
      "goalPos": [
        [          1903,          19,          3,          28        ]
      ]
    },
    {
      "ID": 21,
      "initPos": [        1707,        17,        7,        6      ],
      "endPos": [        1707,        17,        7,        6      ],
      "goalPos": [
        [          1903,          19,          3,          28        ]
      ]
    },
    {
      "ID": 22,
      "initPos": [        2010,        20,        10,        48      ],
      "endPos": [        2010,        20,        10,        48      ],
      "goalPos": [
        [          1912,          19,          12,          37        ]
      ]
    },
    {
      "ID": 23,
      "initPos": [        2012,        20,        12,        50      ],
      "endPos": [        2012,        20,        12,        50      ],
      "goalPos": [
        [          1912,          19,          12,          37        ]
      ]
    },
    {
      "ID": 24,
      "initPos": [        2008,        20,        8,        46      ],
      "endPos": [        2008,        20,        8,        46      ],
      "goalPos": [
        [          1903,          19,          3,          28        ]
      ]
    },
    {
      "ID": 25,
      "initPos": [        1801,        18,        1,        13      ],
      "endPos": [        1801,        18,        1,        13      ],
      "goalPos": [
        [          1903,          19,          3,          28        ]
      ]
    },
    {
      "ID": 26,
      "initPos": [        2003,        20,        3,        41      ],
      "endPos": [        2003,        20,        3,        41      ],
      "goalPos": [
        [          1912,          19,          12,          37        ]
      ]
    },
    {
      "ID": 27,
      "initPos": [        1810,        18,        10,        22      ],
      "endPos": [        1810,        18,        10,        22      ],
      "goalPos": [
        [          1903,          19,          3,          28        ]
      ]
    },
    {
      "ID": 28,
      "initPos": [        1706,        17,        6,        5      ],
      "endPos": [        1706,        17,        6,        5      ],
      "goalPos": [
        [          1903,          19,          3,          28        ]
      ]
    },
    {
      "ID": 29,
      "initPos": [        1907,        19,        7,        32      ],
      "endPos": [        1907,        19,        7,        32      ],
      "goalPos": [
        [          1912,          19,          12,          37        ]
      ]
    },
    {
      "ID": 30,
      "initPos": [        1712,        17,        12,        11      ],
      "endPos": [        1712,        17,        12,        11      ],
      "goalPos": [
        [          1903,          19,          3,          28        ]
      ]
    },
    {
      "ID": 31,
      "initPos": [        1709,        17,        9,        8      ],
      "endPos": [        1709,        17,        9,        8      ],
      "goalPos": [
        [          1912,          19,          12,          37        ]
      ]
    },
    {
      "ID": 32,
      "initPos": [        1812,        18,        12,        24      ],
      "endPos": [        1812,        18,        12,        24      ],
      "goalPos": [
        [          1912,          19,          12,          37        ]
      ]
    },
    {
      "ID": 33,
      "initPos": [        1908,        19,        8,        33      ],
      "endPos": [        1908,        19,        8,        33      ],
      "goalPos": [
        [          1903,          19,          3,          28        ]
      ]
    },
    {
      "ID": 34,
      "initPos": [        1808,        18,        8,        20      ],
      "endPos": [        1808,        18,        8,        20      ],
      "goalPos": [
        [          1903,          19,          3,          28        ]
      ]
    },
    {
      "ID": 35,
      "initPos": [        2007,        20,        7,        45      ],
      "endPos": [        2007,        20,        7,        45      ],
      "goalPos": [
        [          1903,          19,          3,          28        ]
      ]
    },
    {
      "ID": 36,
      "initPos": [        1703,        17,        3,        2      ],
      "endPos": [        1703,        17,        3,        2      ],
      "goalPos": [
        [          1903,          19,          3,          28        ]
      ]
    },
    {
      "ID": 37,
      "initPos": [        1804,        18,        4,        16      ],
      "endPos": [        1804,        18,        4,        16      ],
      "goalPos": [
        [          1912,          19,          12,          37        ]
      ]
    },
    {
      "ID": 38,
      "initPos": [        1809,        18,        9,        21      ],
      "endPos": [        1809,        18,        9,        21      ],
      "goalPos": [
        [          1903,          19,          3,          28        ]
      ]
    },
    {
      "ID": 39,
      "initPos": [        1802,        18,        2,        14      ],
      "endPos": [        1802,        18,        2,        14      ],
      "goalPos": [
        [          1903,          19,          3,          28        ]
      ]
    },
    {
      "ID": 40,
      "initPos": [        1902,        19,        2,        27      ],
      "endPos": [        1902,        19,        2,        27      ],
      "goalPos": [
        [          1912,          19,          12,          37        ]
      ]
    },
    {
      "ID": 41,
      "initPos": [        1811,        18,        11,        23      ],
      "endPos": [        1811,        18,        11,        23      ],
      "goalPos": [
        [          1912,          19,          12,          37        ]
      ]
    },
    {
      "ID": 42,
      "initPos": [        1705,        17,        5,        4      ],
      "endPos": [        1705,        17,        5,        4      ],
      "goalPos": [
        [          1903,          19,          3,          28        ]
      ]
    },
    {
      "ID": 43,
      "initPos": [        1803,        18,        3,        15      ],
      "endPos": [        1803,        18,        3,        15      ],
      "goalPos": [
        [          1903,          19,          3,          28        ]
      ]
    },
    {
      "ID": 44,
      "initPos": [        1711,        17,        11,        10      ],
      "endPos": [        1711,        17,        11,        10      ],
      "goalPos": [
        [          1903,          19,          3,          28        ]
      ]
    },
    {
      "ID": 45,
      "initPos": [        1910,        19,        10,        35      ],
      "endPos": [        1910,        19,        10,        35      ],
      "goalPos": [
        [          1912,          19,          12,          37        ]
      ]
    },
    {
      "ID": 46,
      "initPos": [        1701,        17,        1,        0      ],
      "endPos": [        1701,        17,        1,        0      ],
      "goalPos": [
        [          1903,          19,          3,          28        ]
      ]
    },
    {
      "ID": 47,
      "initPos": [        2006,        20,        6,        44      ],
      "endPos": [        2006,        20,        6,        44      ],
      "goalPos": [
        [          1912,          19,          12,          37        ]
      ]
    },
    {
      "ID": 48,
      "initPos": [        1901,        19,        1,        26      ],
      "endPos": [        1901,        19,        1,        26      ],
      "goalPos": [
        [          1903,          19,          3,          28        ]
      ]
    },
    {
      "ID": 49,
      "initPos": [        1813,        18,        13,        25      ],
      "endPos": [        1813,        18,        13,        25      ],
      "goalPos": [
        [          1903,          19,          3,          28        ]
      ]
    }
  ]
}