{
  "MAPF": "CBS",
  "SAPF": "TDSP",
  "costFunction": "SIC",
  "heuristic": "",
  "nAgents": 5,
  "nNodes": 52,
  "connect": [
    [      1,      1,      0,      0,      0,      0,      0,      0,      0,      0,      0,      0,      0,      0,      0,      0,      0,      0,      0,      0,      0,      0,      0,      0,      0,      0,      0,      0,      0,      0,      0,      0,      0,      0,      0,      0,      0,      0,      0,      0,      0,      0,      0,      0,      0,      0,      0,      0,      0,      0,      0,      0    ],
    [      1,      1,      1,      0,      0,      0,      0,      0,      0,      0,      0,      0,      0,      0,      0,      0,      0,      0,      0,      0,      0,      0,      0,      0,      0,      0,      0,      0,      0,      0,      0,      0,      0,      0,      0,      0,      0,      0,      0,      0,      0,      0,      0,      0,      0,      0,      0,      0,      0,      0,      0,      0    ],
    [      0,      1,      1,      1,      0,      0,      0,      0,      0,      0,      0,      0,      0,      0,      0,      0,      0,      0,      0,      0,      0,      0,      0,      0,      0,      0,      0,      0,      0,      0,      0,      0,      0,      0,      0,      0,      0,      0,      0,      0,      0,      0,      0,      0,      0,      0,      0,      0,      0,      0,      0,      0    ],
    [      0,      0,      1,      1,      1,      0,      0,      0,      0,      0,      0,      0,      0,      0,      0,      0,      0,      0,      0,      0,      0,      0,      0,      0,      0,      0,      0,      0,      0,      0,      0,      0,      0,      0,      0,      0,      0,      0,      0,      0,      0,      0,      0,      0,      0,      0,      0,      0,      0,      0,      0,      0    ],
    [      0,      0,      0,      1,      1,      1,      0,      0,      0,      0,      0,      0,      0,      0,      0,      0,      0,      0,      0,      0,      0,      0,      0,      0,      0,      0,      0,      0,      0,      0,      0,      0,      0,      0,      0,      0,      0,      0,      0,      0,      0,      0,      0,      0,      0,      0,      0,      0,      0,      0,      0,      0    ],
    [      0,      0,      0,      0,      1,      1,      1,      0,      0,      0,      0,      0,      0,      0,      0,      0,      0,      0,      0,      0,      0,      0,      0,      0,      0,      0,      0,      0,      0,      0,      0,      0,      0,      0,      0,      0,      0,      0,      0,      0,      0,      0,      0,      0,      0,      0,      0,      0,      0,      0,      0,      0    ],
    [      0,      0,      0,      0,      0,      1,      1,      1,      0,      0,      0,      0,      0,      0,      0,      0,      0,      0,      0,      0,      0,      0,      0,      0,      0,      0,      0,      0,      0,      0,      0,      0,      0,      0,      0,      0,      0,      0,      0,      0,      0,      0,      0,      0,      0,      0,      0,      0,      0,      0,      0,      0    ],
    [      0,      0,      0,      0,      0,      0,      1,      1,      1,      0,      0,      0,      0,      0,      0,      0,      0,      0,      0,      0,      0,      0,      0,      0,      0,      0,      0,      0,      0,      0,      0,      0,      0,      0,      0,      0,      0,      0,      0,      0,      0,      0,      0,      0,      0,      0,      0,      0,      0,      0,      0,      0    ],
    [      0,      0,      0,      0,      0,      0,      0,      1,      1,      1,      0,      0,      0,      0,      0,      0,      0,      0,      0,      0,      0,      0,      0,      0,      0,      0,      0,      0,      0,      0,      0,      0,      0,      0,      0,      0,      0,      0,      0,      0,      0,      0,      0,      0,      0,      0,      0,      0,      0,      0,      0,      0    ],
    [      0,      0,      0,      0,      0,      0,      0,      0,      1,      1,      1,      0,      0,      0,      0,      0,      0,      0,      0,      0,      0,      0,      0,      0,      0,      0,      0,      0,      0,      0,      0,      0,      0,      0,      0,      0,      0,      0,      0,      0,      0,      0,      0,      0,      0,      0,      0,      0,      0,      0,      0,      0    ],
    [      0,      0,      0,      0,      0,      0,      0,      0,      0,      1,      1,      1,      0,      0,      0,      0,      0,      0,      0,      0,      0,      0,      0,      0,      0,      0,      0,      0,      0,      0,      0,      0,      0,      0,      0,      0,      0,      0,      0,      0,      0,      0,      0,      0,      0,      0,      0,      0,      0,      0,      0,      0    ],
    [      0,      0,      0,      0,      0,      0,      0,      0,      0,      0,      1,      1,      1,      0,      0,      0,      0,      0,      0,      0,      0,      0,      0,      0,      0,      0,      0,      0,      0,      0,      0,      0,      0,      0,      0,      0,      0,      0,      0,      0,      0,      0,      0,      0,      0,      0,      0,      0,      0,      0,      0,      0    ],
    [      0,      0,      0,      0,      0,      0,      0,      0,      0,      0,      0,      1,      1,      0,      0,      0,      0,      0,      0,      0,      0,      0,      0,      0,      0,      1,      0,      0,      0,      0,      0,      0,      0,      0,      0,      0,      0,      0,      0,      0,      0,      0,      0,      0,      0,      0,      0,      0,      0,      0,      0,      0    ],
    [      0,      0,      0,      0,      0,      0,      0,      0,      0,      0,      0,      0,      0,      1,      1,      0,      0,      0,      0,      0,      0,      0,      0,      0,      0,      0,      0,      0,      0,      0,      0,      0,      0,      0,      0,      0,      0,      0,      0,      0,      0,      0,      0,      0,      0,      0,      0,      0,      0,      0,      0,      0    ],
    [      0,      0,      0,      0,      0,      0,      0,      0,      0,      0,      0,      0,      0,      1,      1,      1,      0,      0,      0,      0,      0,      0,      0,      0,      0,      0,      0,      0,      0,      0,      0,      0,      0,      0,      0,      0,      0,      0,      0,      0,      0,      0,      0,      0,      0,      0,      0,      0,      0,      0,      0,      0    ],
    [      0,      0,      0,      0,      0,      0,      0,      0,      0,      0,      0,      0,      0,      0,      1,      1,      1,      0,      0,      0,      0,      0,      0,      0,      0,      0,      0,      0,      0,      0,      0,      0,      0,      0,      0,      0,      0,      0,      0,      0,      0,      0,      0,      0,      0,      0,      0,      0,      0,      0,      0,      0    ],
    [      0,      0,      0,      0,      0,      0,      0,      0,      0,      0,      0,      0,      0,      0,      0,      1,      1,      1,      0,      0,      0,      0,      0,      0,      0,      0,      0,      0,      0,      0,      0,      0,      0,      0,      0,      0,      0,      0,      0,      0,      0,      0,      0,      0,      0,      0,      0,      0,      0,      0,      0,      0    ],
    [      0,      0,      0,      0,      0,      0,      0,      0,      0,      0,      0,      0,      0,      0,      0,      0,      1,      1,      1,      0,      0,      0,      0,      0,      0,      0,      0,      0,      0,      0,      0,      0,      0,      0,      0,      0,      0,      0,      0,      0,      0,      0,      0,      0,      0,      0,      0,      0,      0,      0,      0,      0    ],
    [      0,      0,      0,      0,      0,      0,      0,      0,      0,      0,      0,      0,      0,      0,      0,      0,      0,      1,      1,      1,      0,      0,      0,      0,      0,      0,      0,      0,      0,      0,      0,      0,      0,      0,      0,      0,      0,      0,      0,      0,      0,      0,      0,      0,      0,      0,      0,      0,      0,      0,      0,      0    ],
    [      0,      0,      0,      0,      0,      0,      0,      0,      0,      0,      0,      0,      0,      0,      0,      0,      0,      0,      1,      1,      1,      0,      0,      0,      0,      0,      0,      0,      0,      0,      0,      0,      0,      0,      0,      0,      0,      0,      0,      0,      0,      0,      0,      0,      0,      0,      0,      0,      0,      0,      0,      0    ],
    [      0,      0,      0,      0,      0,      0,      0,      0,      0,      0,      0,      0,      0,      0,      0,      0,      0,      0,      0,      1,      1,      1,      0,      0,      0,      0,      0,      0,      0,      0,      0,      0,      0,      0,      0,      0,      0,      0,      0,      0,      0,      0,      0,      0,      0,      0,      0,      0,      0,      0,      0,      0    ],
    [      0,      0,      0,      0,      0,      0,      0,      0,      0,      0,      0,      0,      0,      0,      0,      0,      0,      0,      0,      0,      1,      1,      1,      0,      0,      0,      0,      0,      0,      0,      0,      0,      0,      0,      0,      0,      0,      0,      0,      0,      0,      0,      0,      0,      0,      0,      0,      0,      0,      0,      0,      0    ],
    [      0,      0,      0,      0,      0,      0,      0,      0,      0,      0,      0,      0,      0,      0,      0,      0,      0,      0,      0,      0,      0,      1,      1,      1,      0,      0,      0,      0,      0,      0,      0,      0,      0,      0,      0,      0,      0,      0,      0,      0,      0,      0,      0,      0,      0,      0,      0,      0,      0,      0,      0,      0    ],
    [      0,      0,      0,      0,      0,      0,      0,      0,      0,      0,      0,      0,      0,      0,      0,      0,      0,      0,      0,      0,      0,      0,      1,      1,      1,      0,      0,      0,      0,      0,      0,      0,      0,      0,      0,      0,      0,      0,      0,      0,      0,      0,      0,      0,      0,      0,      0,      0,      0,      0,      0,      0    ],
    [      0,      0,      0,      0,      0,      0,      0,      0,      0,      0,      0,      0,      0,      0,      0,      0,      0,      0,      0,      0,      0,      0,      0,      1,      1,      1,      0,      0,      0,      0,      0,      0,      0,      0,      0,      0,      0,      0,      0,      0,      0,      0,      0,      0,      0,      0,      0,      0,      0,      0,      0,      0    ],
    [      0,      0,      0,      0,      0,      0,      0,      0,      0,      0,      0,      0,      1,      0,      0,      0,      0,      0,      0,      0,      0,      0,      0,      0,      1,      1,      0,      0,      0,      0,      0,      0,      0,      0,      0,      0,      0,      0,      1,      0,      0,      0,      0,      0,      0,      0,      0,      0,      0,      0,      0,      0    ],
    [      0,      0,      0,      0,      0,      0,      0,      0,      0,      0,      0,      0,      0,      0,      0,      0,      0,      0,      0,      0,      0,      0,      0,      0,      0,      0,      1,      1,      0,      0,      0,      0,      0,      0,      0,      0,      0,      0,      0,      0,      0,      0,      0,      0,      0,      0,      0,      0,      0,      0,      0,      0    ],
    [      0,      0,      0,      0,      0,      0,      0,      0,      0,      0,      0,      0,      0,      0,      0,      0,      0,      0,      0,      0,      0,      0,      0,      0,      0,      0,      1,      1,      1,      0,      0,      0,      0,      0,      0,      0,      0,      0,      0,      0,      0,      0,      0,      0,      0,      0,      0,      0,      0,      0,      0,      0    ],
    [      0,      0,      0,      0,      0,      0,      0,      0,      0,      0,      0,      0,      0,      0,      0,      0,      0,      0,      0,      0,      0,      0,      0,      0,      0,      0,      0,      1,      1,      1,      0,      0,      0,      0,      0,      0,      0,      0,      0,      0,      0,      0,      0,      0,      0,      0,      0,      0,      0,      0,      0,      0    ],
    [      0,      0,      0,      0,      0,      0,      0,      0,      0,      0,      0,      0,      0,      0,      0,      0,      0,      0,      0,      0,      0,      0,      0,      0,      0,      0,      0,      0,      1,      1,      1,      0,      0,      0,      0,      0,      0,      0,      0,      0,      0,      0,      0,      0,      0,      0,      0,      0,      0,      0,      0,      0    ],
    [      0,      0,      0,      0,      0,      0,      0,      0,      0,      0,      0,      0,      0,      0,      0,      0,      0,      0,      0,      0,      0,      0,      0,      0,      0,      0,      0,      0,      0,      1,      1,      1,      0,      0,      0,      0,      0,      0,      0,      0,      0,      0,      0,      0,      0,      0,      0,      0,      0,      0,      0,      0    ],
    [      0,      0,      0,      0,      0,      0,      0,      0,      0,      0,      0,      0,      0,      0,      0,      0,      0,      0,      0,      0,      0,      0,      0,      0,      0,      0,      0,      0,      0,      0,      1,      1,      1,      0,      0,      0,      0,      0,      0,      0,      0,      0,      0,      0,      0,      0,      0,      0,      0,      0,      0,      0    ],
    [      0,      0,      0,      0,      0,      0,      0,      0,      0,      0,      0,      0,      0,      0,      0,      0,      0,      0,      0,      0,      0,      0,      0,      0,      0,      0,      0,      0,      0,      0,      0,      1,      1,      1,      0,      0,      0,      0,      0,      0,      0,      0,      0,      0,      0,      0,      0,      0,      0,      0,      0,      0    ],
    [      0,      0,      0,      0,      0,      0,      0,      0,      0,      0,      0,      0,      0,      0,      0,      0,      0,      0,      0,      0,      0,      0,      0,      0,      0,      0,      0,      0,      0,      0,      0,      0,      1,      1,      1,      0,      0,      0,      0,      0,      0,      0,      0,      0,      0,      0,      0,      0,      0,      0,      0,      0    ],
    [      0,      0,      0,      0,      0,      0,      0,      0,      0,      0,      0,      0,      0,      0,      0,      0,      0,      0,      0,      0,      0,      0,      0,      0,      0,      0,      0,      0,      0,      0,      0,      0,      0,      1,      1,      1,      0,      0,      0,      0,      0,      0,      0,      0,      0,      0,      0,      0,      0,      0,      0,      0    ],
    [      0,      0,      0,      0,      0,      0,      0,      0,      0,      0,      0,      0,      0,      0,      0,      0,      0,      0,      0,      0,      0,      0,      0,      0,      0,      0,      0,      0,      0,      0,      0,      0,      0,      0,      1,      1,      1,      0,      0,      0,      0,      0,      0,      0,      0,      0,      0,      0,      0,      0,      0,      0    ],
    [      0,      0,      0,      0,      0,      0,      0,      0,      0,      0,      0,      0,      0,      0,      0,      0,      0,      0,      0,      0,      0,      0,      0,      0,      0,      0,      0,      0,      0,      0,      0,      0,      0,      0,      0,      1,      1,      1,      0,      0,      0,      0,      0,      0,      0,      0,      0,      0,      0,      0,      0,      0    ],
    [      0,      0,      0,      0,      0,      0,      0,      0,      0,      0,      0,      0,      0,      0,      0,      0,      0,      0,      0,      0,      0,      0,      0,      0,      0,      0,      0,      0,      0,      0,      0,      0,      0,      0,      0,      0,      1,      1,      1,      0,      0,      0,      0,      0,      0,      0,      0,      0,      0,      0,      0,      0    ],
    [      0,      0,      0,      0,      0,      0,      0,      0,      0,      0,      0,      0,      0,      0,      0,      0,      0,      0,      0,      0,      0,      0,      0,      0,      0,      1,      0,      0,      0,      0,      0,      0,      0,      0,      0,      0,      0,      1,      1,      0,      0,      0,      0,      0,      0,      0,      0,      0,      0,      0,      0,      1    ],
    [      0,      0,      0,      0,      0,      0,      0,      0,      0,      0,      0,      0,      0,      0,      0,      0,      0,      0,      0,      0,      0,      0,      0,      0,      0,      0,      0,      0,      0,      0,      0,      0,      0,      0,      0,      0,      0,      0,      0,      1,      1,      0,      0,      0,      0,      0,      0,      0,      0,      0,      0,      0    ],
    [      0,      0,      0,      0,      0,      0,      0,      0,      0,      0,      0,      0,      0,      0,      0,      0,      0,      0,      0,      0,      0,      0,      0,      0,      0,      0,      0,      0,      0,      0,      0,      0,      0,      0,      0,      0,      0,      0,      0,      1,      1,      1,      0,      0,      0,      0,      0,      0,      0,      0,      0,      0    ],
    [      0,      0,      0,      0,      0,      0,      0,      0,      0,      0,      0,      0,      0,      0,      0,      0,      0,      0,      0,      0,      0,      0,      0,      0,      0,      0,      0,      0,      0,      0,      0,      0,      0,      0,      0,      0,      0,      0,      0,      0,      1,      1,      1,      0,      0,      0,      0,      0,      0,      0,      0,      0    ],
    [      0,      0,      0,      0,      0,      0,      0,      0,      0,      0,      0,      0,      0,      0,      0,      0,      0,      0,      0,      0,      0,      0,      0,      0,      0,      0,      0,      0,      0,      0,      0,      0,      0,      0,      0,      0,      0,      0,      0,      0,      0,      1,      1,      1,      0,      0,      0,      0,      0,      0,      0,      0    ],
    [      0,      0,      0,      0,      0,      0,      0,      0,      0,      0,      0,      0,      0,      0,      0,      0,      0,      0,      0,      0,      0,      0,      0,      0,      0,      0,      0,      0,      0,      0,      0,      0,      0,      0,      0,      0,      0,      0,      0,      0,      0,      0,      1,      1,      1,      0,      0,      0,      0,      0,      0,      0    ],
    [      0,      0,      0,      0,      0,      0,      0,      0,      0,      0,      0,      0,      0,      0,      0,      0,      0,      0,      0,      0,      0,      0,      0,      0,      0,      0,      0,      0,      0,      0,      0,      0,      0,      0,      0,      0,      0,      0,      0,      0,      0,      0,      0,      1,      1,      1,      0,      0,      0,      0,      0,      0    ],
    [      0,      0,      0,      0,      0,      0,      0,      0,      0,      0,      0,      0,      0,      0,      0,      0,      0,      0,      0,      0,      0,      0,      0,      0,      0,      0,      0,      0,      0,      0,      0,      0,      0,      0,      0,      0,      0,      0,      0,      0,      0,      0,      0,      0,      1,      1,      1,      0,      0,      0,      0,      0    ],
    [      0,      0,      0,      0,      0,      0,      0,      0,      0,      0,      0,      0,      0,      0,      0,      0,      0,      0,      0,      0,      0,      0,      0,      0,      0,      0,      0,      0,      0,      0,      0,      0,      0,      0,      0,      0,      0,      0,      0,      0,      0,      0,      0,      0,      0,      1,      1,      1,      0,      0,      0,      0    ],
    [      0,      0,      0,      0,      0,      0,      0,      0,      0,      0,      0,      0,      0,      0,      0,      0,      0,      0,      0,      0,      0,      0,      0,      0,      0,      0,      0,      0,      0,      0,      0,      0,      0,      0,      0,      0,      0,      0,      0,      0,      0,      0,      0,      0,      0,      0,      1,      1,      1,      0,      0,      0    ],
    [      0,      0,      0,      0,      0,      0,      0,      0,      0,      0,      0,      0,      0,      0,      0,      0,      0,      0,      0,      0,      0,      0,      0,      0,      0,      0,      0,      0,      0,      0,      0,      0,      0,      0,      0,      0,      0,      0,      0,      0,      0,      0,      0,      0,      0,      0,      0,      1,      1,      1,      0,      0    ],
    [      0,      0,      0,      0,      0,      0,      0,      0,      0,      0,      0,      0,      0,      0,      0,      0,      0,      0,      0,      0,      0,      0,      0,      0,      0,      0,      0,      0,      0,      0,      0,      0,      0,      0,      0,      0,      0,      0,      0,      0,      0,      0,      0,      0,      0,      0,      0,      0,      1,      1,      1,      0    ],
    [      0,      0,      0,      0,      0,      0,      0,      0,      0,      0,      0,      0,      0,      0,      0,      0,      0,      0,      0,      0,      0,      0,      0,      0,      0,      0,      0,      0,      0,      0,      0,      0,      0,      0,      0,      0,      0,      0,      0,      0,      0,      0,      0,      0,      0,      0,      0,      0,      0,      1,      1,      1    ],
    [      0,      0,      0,      0,      0,      0,      0,      0,      0,      0,      0,      0,      0,      0,      0,      0,      0,      0,      0,      0,      0,      0,      0,      0,      0,      0,      0,      0,      0,      0,      0,      0,      0,      0,      0,      0,      0,      0,      1,      0,      0,      0,      0,      0,      0,      0,      0,      0,      0,      0,      1,      1    ]
  ],
  "nodes": [
    [      1701,      17,      1,      0    ],
    [      1702,      17,      2,      1    ],
    [      1703,      17,      3,      2    ],
    [      1704,      17,      4,      3    ],
    [      1705,      17,      5,      4    ],
    [      1706,      17,      6,      5    ],
    [      1707,      17,      7,      6    ],
    [      1708,      17,      8,      7    ],
    [      1709,      17,      9,      8    ],
    [      1710,      17,      10,      9    ],
    [      1711,      17,      11,      10    ],
    [      1712,      17,      12,      11    ],
    [      1713,      17,      13,      12    ],
    [      1801,      18,      1,      13    ],
    [      1802,      18,      2,      14    ],
    [      1803,      18,      3,      15    ],
    [      1804,      18,      4,      16    ],
    [      1805,      18,      5,      17    ],
    [      1806,      18,      6,      18    ],
    [      1807,      18,      7,      19    ],
    [      1808,      18,      8,      20    ],
    [      1809,      18,      9,      21    ],
    [      1810,      18,      10,      22    ],
    [      1811,      18,      11,      23    ],
    [      1812,      18,      12,      24    ],
    [      1813,      18,      13,      25    ],
    [      1901,      19,      1,      26    ],
    [      1902,      19,      2,      27    ],
    [      1903,      19,      3,      28    ],
    [      1904,      19,      4,      29    ],
    [      1905,      19,      5,      30    ],
    [      1906,      19,      6,      31    ],
    [      1907,      19,      7,      32    ],
    [      1908,      19,      8,      33    ],
    [      1909,      19,      9,      34    ],
    [      1910,      19,      10,      35    ],
    [      1911,      19,      11,      36    ],
    [      1912,      19,      12,      37    ],
    [      1913,      19,      13,      38    ],
    [      2001,      20,      1,      39    ],
    [      2002,      20,      2,      40    ],
    [      2003,      20,      3,      41    ],
    [      2004,      20,      4,      42    ],
    [      2005,      20,      5,      43    ],
    [      2006,      20,      6,      44    ],
    [      2007,      20,      7,      45    ],
    [      2008,      20,      8,      46    ],
    [      2009,      20,      9,      47    ],
    [      2010,      20,      10,      48    ],
    [      2011,      20,      11,      49    ],
    [      2012,      20,      12,      50    ],
    [      2013,      20,      13,      51    ]
  ],
  "agents": [    {
      "ID": 0,
      "initPos": [        2013,        20,        13,        51      ],
      "endPos": [        1906,        19,        6,        31      ],
      "goalPos": [
        [          1801,          18,          1,          13        ],
        [          1905,          19,          5,          30        ],
        [          1713,          17,          13,          12        ],
        [          1910,          19,          10,          35        ],
        [          1805,          18,          5,          17        ],
        [          2013,          20,          13,          51        ],
        [          2009,          20,          9,          47        ],
        [          1711,          17,          11,          10        ],
        [          1904,          19,          4,          29        ],
        [          2002,          20,          2,          40        ],
        [          1901,          19,          1,          26        ],
        [          2004,          20,          4,          42        ],
        [          1812,          18,          12,          24        ],
        [          1910,          19,          10,          35        ],
        [          1913,          19,          13,          38        ],
        [          1903,          19,          3,          28        ],
        [          1709,          17,          9,          8        ],
        [          1802,          18,          2,          14        ],
        [          1910,          19,          10,          35        ],
        [          1704,          17,          4,          3        ]
      ]
    },
    {
      "ID": 1,
      "initPos": [        1808,        18,        8,        20      ],
      "endPos": [        1907,        19,        7,        32      ],
      "goalPos": [
        [          1904,          19,          4,          29        ],
        [          1707,          17,          7,          6        ],
        [          1809,          18,          9,          21        ],
        [          1705,          17,          5,          4        ],
        [          1710,          17,          10,          9        ],
        [          1911,          19,          11,          36        ],
        [          1913,          19,          13,          38        ],
        [          1806,          18,          6,          18        ],
        [          1912,          19,          12,          37        ],
        [          1902,          19,          2,          27        ],
        [          1806,          18,          6,          18        ],
        [          1904,          19,          4,          29        ],
        [          1808,          18,          8,          20        ],
        [          1812,          18,          12,          24        ],
        [          1903,          19,          3,          28        ],
        [          1703,          17,          3,          2        ],
        [          1704,          17,          4,          3        ],
        [          1804,          18,          4,          16        ],
        [          1911,          19,          11,          36        ],
        [          1802,          18,          2,          14        ]
      ]
    },
    {
      "ID": 2,
      "initPos": [        1710,        17,        10,        9      ],
      "endPos": [        1810,        18,        10,        22      ],
      "goalPos": [
        [          2007,          20,          7,          45        ],
        [          1901,          19,          1,          26        ],
        [          2010,          20,          10,          48        ],
        [          2006,          20,          6,          44        ],
        [          2012,          20,          12,          50        ],
        [          1807,          18,          7,          19        ],
        [          2008,          20,          8,          46        ],
        [          1704,          17,          4,          3        ],
        [          1710,          17,          10,          9        ],
        [          1901,          19,          1,          26        ],
        [          1801,          18,          1,          13        ],
        [          1804,          18,          4,          16        ],
        [          2002,          20,          2,          40        ],
        [          1909,          19,          9,          34        ],
        [          1701,          17,          1,          0        ],
        [          1706,          17,          6,          5        ],
        [          1809,          18,          9,          21        ],
        [          1903,          19,          3,          28        ],
        [          1801,          18,          1,          13        ],
        [          1713,          17,          13,          12        ]
      ]
    },
    {
      "ID": 3,
      "initPos": [        2010,        20,        10,        48      ],
      "endPos": [        2005,        20,        5,        43      ],
      "goalPos": [
        [          1908,          19,          8,          33        ],
        [          1706,          17,          6,          5        ],
        [          1910,          19,          10,          35        ],
        [          2004,          20,          4,          42        ],
        [          1901,          19,          1,          26        ],
        [          1913,          19,          13,          38        ],
        [          1910,          19,          10,          35        ],
        [          2007,          20,          7,          45        ],
        [          1908,          19,          8,          33        ],
        [          1704,          17,          4,          3        ],
        [          1713,          17,          13,          12        ],
        [          2001,          20,          1,          39        ],
        [          2012,          20,          12,          50        ],
        [          2013,          20,          13,          51        ],
        [          1806,          18,          6,          18        ],
        [          2001,          20,          1,          39        ],
        [          1913,          19,          13,          38        ],
        [          1908,          19,          8,          33        ],
        [          1813,          18,          13,          25        ],
        [          1903,          19,          3,          28        ]
      ]
    },
    {
      "ID": 4,
      "initPos": [        1803,        18,        3,        15      ],
      "endPos": [        1712,        17,        12,        11      ],
      "goalPos": [
        [          1704,          17,          4,          3        ],
        [          1811,          18,          11,          23        ],
        [          1707,          17,          7,          6        ],
        [          1813,          18,          13,          25        ],
        [          1802,          18,          2,          14        ],
        [          1709,          17,          9,          8        ],
        [          1806,          18,          6,          18        ],
        [          2009,          20,          9,          47        ],
        [          1807,          18,          7,          19        ],
        [          1703,          17,          3,          2        ],
        [          1705,          17,          5,          4        ],
        [          1805,          18,          5,          17        ],
        [          1807,          18,          7,          19        ],
        [          1813,          18,          13,          25        ],
        [          1805,          18,          5,          17        ],
        [          1702,          17,          2,          1        ],
        [          1701,          17,          1,          0        ],
        [          1808,          18,          8,          20        ],
        [          1711,          17,          11,          10        ],
        [          2008,          20,          8,          46        ]
      ]
    }
  ]
}